%YAML 1.1
%TAG !u! tag:unity3d.com,2011:
--- !u!74 &7400000
AnimationClip:
  m_ObjectHideFlags: 0
  m_PrefabParentObject: {fileID: 0}
  m_PrefabInternal: {fileID: 0}
  m_Name: IdleEditable
  serializedVersion: 6
  m_Legacy: 1
  m_Compressed: 0
  m_UseHighQualityCurve: 1
  m_RotationCurves:
  - curve:
      serializedVersion: 2
      m_Curve:
      - serializedVersion: 2
        time: 0.00000023841858
        value: {x: 0.10549152, y: 0.8694828, z: 0.47878307, w: -0.060315102}
        inSlope: {x: -0.24036993, y: 0.028854078, z: 0.02781946, w: 0.15851709}
        outSlope: {x: -0.24036993, y: 0.028854078, z: 0.02781946, w: 0.15851709}
        tangentMode: 0
      - serializedVersion: 2
        time: 0.08333349
        value: {x: 0.10506608, y: 0.8695214, z: 0.4787749, w: -0.060566407}
        inSlope: {x: -0.0051175556, y: 0.00046205433, z: -0.00009655934, w: -0.0030094774}
        outSlope: {x: -0.0051175556, y: 0.00046205433, z: -0.00009655934, w: -0.0030094774}
        tangentMode: 0
      - serializedVersion: 2
        time: 2.1666667
        value: {x: 0.101361156, y: 0.8698459, z: 0.47871336, w: -0.06267007}
        inSlope: {x: 0.005619843, y: -0.00047707467, z: 0.00008046612, w: 0.0030804216}
        outSlope: {x: 0.005619843, y: -0.00047707467, z: 0.00008046612, w: 0.0030804216}
        tangentMode: 0
      - serializedVersion: 2
        time: 2.9166667
        value: {x: 0.10549154, y: 0.8694828, z: 0.47878307, w: -0.06031509}
        inSlope: {x: 0.005400559, y: -0.0004906673, z: 0.00010585826, w: 0.0031971158}
        outSlope: {x: 0.005400559, y: -0.0004906673, z: 0.00010585826, w: 0.0031971158}
        tangentMode: 0
      m_PreInfinity: 2
      m_PostInfinity: 2
      m_RotationOrder: 4
    path: Root
  - curve:
      serializedVersion: 2
      m_Curve:
      - serializedVersion: 2
        time: 0.00000023841858
        value: {x: 0.00000065778454, y: 0.0000000025892506, z: -0.22760563, w: 0.9737534}
        inSlope: {x: -0.0000019585138, y: 0.0000005257348, z: 0.6278181, w: 0.16478674}
        outSlope: {x: -0.0000019585138, y: 0.0000005257348, z: 0.6278181, w: 0.16478674}
        tangentMode: 0
      - serializedVersion: 2
        time: 0.041666746
        value: {x: 0.0000006578385, y: 0.0000000025778115, z: -0.2276229, w: 0.9737494}
        inSlope: {x: 0.0000000012482828, y: -2.6511088e-10, z: -0.00039982836, w: -0.00009298334}
        outSlope: {x: 0.0000000012482828, y: -2.6511088e-10, z: -0.00039982836, w: -0.00009298334}
        tangentMode: 0
      - serializedVersion: 2
        time: 2.0833337
        value: {x: 0.00000065818773, y: 0.0000000025035196, z: -0.22773482, w: 0.97372323}
        inSlope: {x: 4.3655635e-10, y: -9.273625e-11, z: -0.00013965333, w: -0.000032901684}
        outSlope: {x: 4.3655635e-10, y: -9.273625e-11, z: -0.00013965333, w: -0.000032901684}
        tangentMode: 0
      - serializedVersion: 2
        time: 2.9166667
        value: {x: 0.00000065778494, y: 0.0000000025891909, z: -0.22760573, w: 0.9737534}
        inSlope: {x: -0.0000000013574261, y: 2.8874614e-10, z: 0.00043523478, w: 0.0001015667}
        outSlope: {x: -0.0000000013574261, y: 2.8874614e-10, z: 0.00043523478, w: 0.0001015667}
        tangentMode: 0
      m_PreInfinity: 2
      m_PostInfinity: 2
      m_RotationOrder: 4
    path: Root/Ball
  - curve:
      serializedVersion: 2
      m_Curve:
      - serializedVersion: 2
        time: 0
        value: {x: -0.7163419, y: 0.025096107, z: -0.02441395, w: 0.69687045}
        inSlope: {x: 0, y: 0, z: 0, w: 0}
        outSlope: {x: 0, y: 0, z: 0, w: 0}
        tangentMode: 0
      - serializedVersion: 2
        time: 2.9166667
        value: {x: -0.7163419, y: 0.025096107, z: -0.02441395, w: 0.69687045}
        inSlope: {x: 0, y: 0, z: 0, w: 0}
        outSlope: {x: 0, y: 0, z: 0, w: 0}
        tangentMode: 0
      m_PreInfinity: 2
      m_PostInfinity: 2
      m_RotationOrder: 4
    path: Root/Ball/Wrist
  - curve:
      serializedVersion: 2
      m_Curve:
      - serializedVersion: 2
        time: 0.00000023841858
        value: {x: -0.22031254, y: -0.19365779, z: -0.4641509, w: 0.83577687}
        inSlope: {x: -0.1453826, y: 0.28049004, z: 0.047807585, w: 0.058527112}
        outSlope: {x: -0.1453826, y: 0.28049004, z: 0.047807585, w: 0.058527112}
        tangentMode: 0
      - serializedVersion: 2
        time: 0.08333349
        value: {x: -0.22014269, y: -0.19373152, z: -0.46458125, w: 0.8355654}
        inSlope: {x: 0.0020327528, y: -0.00087100104, z: -0.005159845, w: -0.0025355767}
        outSlope: {x: 0.0020327528, y: -0.00087100104, z: -0.005159845, w: -0.0025355767}
        tangentMode: 0
      - serializedVersion: 2
        time: 2.1666667
        value: {x: -0.21872865, y: -0.19427277, z: -0.4682231, w: 0.83377635}
        inSlope: {x: -0.0020599326, y: 0.0006905781, z: 0.0053865807, w: 0.0026450106}
        outSlope: {x: -0.0020599326, y: 0.0006905781, z: 0.0053865807, w: 0.0026450106}
        tangentMode: 0
      - serializedVersion: 2
        time: 2.9166667
        value: {x: -0.2203125, y: -0.19365786, z: -0.46415088, w: 0.83577687}
        inSlope: {x: -0.0021600805, y: 0.00094235304, z: 0.005470297, w: 0.0026879413}
        outSlope: {x: -0.0021600805, y: 0.00094235304, z: 0.005470297, w: 0.0026879413}
        tangentMode: 0
      m_PreInfinity: 2
      m_PostInfinity: 2
      m_RotationOrder: 4
    path: Root/Ball/Wrist/Hand 1
  - curve:
      serializedVersion: 2
      m_Curve:
      - serializedVersion: 2
        time: 0.00000023841858
        value: {x: 0.72372603, y: 0.0034147212, z: -0.59872675, w: -0.34312567}
        inSlope: {x: 0.062927365, y: -1.1750363, z: -0.69118536, w: 0.9887935}
        outSlope: {x: 0.062927365, y: -1.1750363, z: -0.69118536, w: 0.9887935}
        tangentMode: 0
      - serializedVersion: 2
        time: 0.041666746
        value: {x: 0.7237116, y: 0.0024822433, z: -0.59922296, w: -0.34229696}
        inSlope: {x: -0.00017666882, y: -0.020809306, z: -0.010595097, w: 0.018010877}
        outSlope: {x: -0.00017666882, y: -0.020809306, z: -0.010595097, w: 0.018010877}
        tangentMode: 0
      - serializedVersion: 2
        time: 1.5416667
        value: {x: 0.7261409, y: -0.0027679836, z: -0.5943979, w: -0.34554723}
        inSlope: {x: -0.0036299268, y: -0.013437463, z: -0.017241975, w: 0.022127893}
        outSlope: {x: -0.0036299268, y: -0.013437463, z: -0.017241975, w: 0.022127893}
        tangentMode: 0
      - serializedVersion: 2
        time: 2.9166667
        value: {x: 0.7237261, y: 0.0034149277, z: -0.5987267, w: -0.34312588}
        inSlope: {x: -0.003971115, y: -0.014488728, z: -0.01901014, w: 0.02457485}
        outSlope: {x: -0.003971115, y: -0.014488728, z: -0.01901014, w: 0.02457485}
        tangentMode: 0
      m_PreInfinity: 2
      m_PostInfinity: 2
      m_RotationOrder: 4
    path: Root/Ball/Wrist/Hand 1/Tumb_Base
  - curve:
      serializedVersion: 2
      m_Curve:
      - serializedVersion: 2
        time: 0.00000023841858
        value: {x: 4.5404965e-18, y: 4.1854007e-18, z: -0.00022294188, w: 1}
        inSlope: {x: 2.2349748e-16, y: 3.1848465e-16, z: -3.1554267, w: 0.42156735}
        outSlope: {x: 2.2349748e-16, y: 3.1848465e-16, z: -3.1554267, w: 0.42156735}
        tangentMode: 0
      - serializedVersion: 2
        time: 0.041666746
        value: {x: 4.5404486e-18, y: 4.1853614e-18, z: -0.00022243438, w: 1}
        inSlope: {x: -5.7571993e-22, y: -4.7149477e-22, z: 0.0000060899997, w: 0}
        outSlope: {x: -5.7571993e-22, y: -4.7149477e-22, z: 0.0000060899997, w: 0}
        tangentMode: 0
      - serializedVersion: 2
        time: 2.0833337
        value: {x: 4.5404486e-18, y: 4.1853614e-18, z: -0.00022243438, w: 1}
        inSlope: {x: 0, y: 0, z: 0, w: 0}
        outSlope: {x: 0, y: 0, z: 0, w: 0}
        tangentMode: 0
      - serializedVersion: 2
        time: 2.9166667
        value: {x: 4.5404486e-18, y: 4.1853614e-18, z: -0.00022243438, w: 1}
        inSlope: {x: 0, y: 0, z: 0, w: 0}
        outSlope: {x: 0, y: 0, z: 0, w: 0}
        tangentMode: 0
      m_PreInfinity: 2
      m_PostInfinity: 2
      m_RotationOrder: 4
    path: Root/Ball/Wrist/Hand 1/Tumb_Base/Tumb_Middle
  - curve:
      serializedVersion: 2
      m_Curve:
      - serializedVersion: 2
        time: 0
        value: {x: -0.35240197, y: 0.9358487, z: -7.8882603e-17, w: -3.572581e-17}
        inSlope: {x: 0, y: 0, z: 0, w: 0}
        outSlope: {x: 0, y: 0, z: 0, w: 0}
        tangentMode: 0
      - serializedVersion: 2
        time: 2.9166667
        value: {x: -0.35240197, y: 0.9358487, z: -7.8882603e-17, w: -3.572581e-17}
        inSlope: {x: 0, y: 0, z: 0, w: 0}
        outSlope: {x: 0, y: 0, z: 0, w: 0}
        tangentMode: 0
      m_PreInfinity: 2
      m_PostInfinity: 2
      m_RotationOrder: 4
    path: Root/Ball/Wrist/Hand 1/Tumb_Base/Tumb_Middle/Tumb_End
  - curve:
      serializedVersion: 2
      m_Curve:
      - serializedVersion: 2
        time: 0.00000023841858
        value: {x: -0.68029803, y: -0.081933826, z: 0.51980877, w: 0.5101767}
        inSlope: {x: 0.11323547, y: 0.653749, z: 0.6848818, w: -0.35684398}
        outSlope: {x: 0.11323547, y: 0.653749, z: 0.6848818, w: -0.35684398}
        tangentMode: 0
      - serializedVersion: 2
        time: 0.041666746
        value: {x: -0.68055254, y: -0.08194799, z: 0.51957214, w: 0.510076}
        inSlope: {x: -0.006103998, y: -0.00033661758, z: -0.005672699, w: -0.0024189972}
        outSlope: {x: -0.006103998, y: -0.00033661758, z: -0.005672699, w: -0.0024189972}
        tangentMode: 0
      - serializedVersion: 2
        time: 2.0833337
        value: {x: -0.68559974, y: -0.08220267, z: 0.5148796, w: 0.50803024}
        inSlope: {x: 0.0062491773, y: 0.0002852077, z: 0.005812872, w: 0.0025885054}
        outSlope: {x: 0.0062491773, y: 0.0002852077, z: 0.005812872, w: 0.0025885054}
        tangentMode: 0
      - serializedVersion: 2
        time: 2.9166667
        value: {x: -0.68029803, y: -0.0819339, z: 0.5198086, w: 0.5101769}
        inSlope: {x: 0.006467367, y: 0.00035655635, z: 0.006008171, w: 0.0025620558}
        outSlope: {x: 0.006467367, y: 0.00035655635, z: 0.006008171, w: 0.0025620558}
        tangentMode: 0
      m_PreInfinity: 2
      m_PostInfinity: 2
      m_RotationOrder: 4
    path: Root/Ball/Wrist/Hand 1/Finger_Base
  - curve:
      serializedVersion: 2
      m_Curve:
      - serializedVersion: 2
        time: 0.00000023841858
        value: {x: -6.0790185e-17, y: -1.05864494e-16, z: 0.8700192, w: 0.49301788}
        inSlope: {x: -2.8317397e-17, y: 9.24716e-17, z: -0.26142833, w: 0.48721197}
        outSlope: {x: -2.8317397e-17, y: 9.24716e-17, z: -0.26142833, w: 0.48721197}
        tangentMode: 0
      - serializedVersion: 2
        time: 0.041666746
        value: {x: -6.078873e-17, y: -1.0586993e-16, z: 0.87003523, w: 0.4929896}
        inSlope: {x: 3.4384276e-20, y: -1.2800798e-19, z: 0.0003776554, w: -0.00066661905}
        outSlope: {x: 3.4384276e-20, y: -1.2800798e-19, z: 0.0003776554, w: -0.00066661905}
        tangentMode: 0
      - serializedVersion: 2
        time: 2.0833337
        value: {x: -6.0770796e-17, y: -1.0593659e-16, z: 0.870232, w: 0.49264225}
        inSlope: {x: -8.814423e-21, y: 3.2796012e-20, z: -0.00009655939, w: 0.00017094587}
        outSlope: {x: -8.814423e-21, y: 3.2796012e-20, z: -0.00009655939, w: 0.00017094587}
        tangentMode: 0
      - serializedVersion: 2
        time: 2.9166667
        value: {x: -6.0790185e-17, y: -1.05864494e-16, z: 0.8700192, w: 0.49301788}
        inSlope: {x: -3.6846075e-20, y: 1.3785514e-19, z: -0.0004062668, w: 0.00071740424}
        outSlope: {x: -3.6846075e-20, y: 1.3785514e-19, z: -0.0004062668, w: 0.00071740424}
        tangentMode: 0
      m_PreInfinity: 2
      m_PostInfinity: 2
      m_RotationOrder: 4
    path: Root/Ball/Wrist/Hand 1/Finger_Base/Finger_Middle
  - curve:
      serializedVersion: 2
      m_Curve:
      - serializedVersion: 2
        time: 0
        value: {x: 0, y: 0, z: -0.46309823, w: 0.886307}
        inSlope: {x: 0, y: 0, z: 0, w: 0}
        outSlope: {x: 0, y: 0, z: 0, w: 0}
        tangentMode: 0
      - serializedVersion: 2
        time: 2.9166667
        value: {x: 0, y: -0, z: -0.46309826, w: 0.88630694}
        inSlope: {x: 0, y: 0, z: 0, w: 0}
        outSlope: {x: 0, y: 0, z: 0, w: 0}
        tangentMode: 0
      m_PreInfinity: 2
      m_PostInfinity: 2
      m_RotationOrder: 4
    path: Root/Ball/Wrist/Hand 1/Finger_Base/Finger_Middle/Finger_End
  - curve:
      serializedVersion: 2
      m_Curve:
      - serializedVersion: 2
        time: 0.00000023841858
        value: {x: 0.7783267, y: -0.103552215, z: -0.519951, w: -0.3363561}
        inSlope: {x: -0.28973308, y: -1.1568366, z: -0.8812889, w: 0.7121373}
        outSlope: {x: -0.28973308, y: -1.1568366, z: -0.8812889, w: 0.7121373}
        tangentMode: 0
      - serializedVersion: 2
        time: 0.041666746
        value: {x: 0.7785528, y: -0.103658564, z: -0.5196061, w: -0.33633316}
        inSlope: {x: 0.0054159216, y: -0.0025515878, z: 0.008266218, w: 0.00055217795}
        outSlope: {x: 0.0054159216, y: -0.0025515878, z: 0.008266218, w: 0.00055217795}
        tangentMode: 0
      - serializedVersion: 2
        time: 2.0833337
        value: {x: 0.78296524, y: -0.10575366, z: -0.5128175, w: -0.33585677}
        inSlope: {x: -0.005382289, y: 0.0025750052, z: -0.008346303, w: -0.00061476114}
        outSlope: {x: -0.005382289, y: 0.0025750052, z: -0.008346303, w: -0.00061476114}
        tangentMode: 0
      - serializedVersion: 2
        time: 2.9166667
        value: {x: 0.7783268, y: -0.103551984, z: -0.51995087, w: -0.3363562}
        inSlope: {x: -0.005742095, y: 0.0027081473, z: -0.008759055, w: -0.0005850814}
        outSlope: {x: -0.005742095, y: 0.0027081473, z: -0.008759055, w: -0.0005850814}
        tangentMode: 0
      m_PreInfinity: 2
      m_PostInfinity: 2
      m_RotationOrder: 4
    path: Root/Ball/Wrist/Hand 1/Middle_Finger_Base
  - curve:
      serializedVersion: 2
      m_Curve:
      - serializedVersion: 2
        time: 0.00000023841858
        value: {x: -6.732886e-17, y: -7.887445e-17, z: 0.7574753, w: 0.6528638}
        inSlope: {x: -1.418002e-17, y: 1.9305358e-16, z: -0.72434455, w: 0.92880356}
        outSlope: {x: -1.418002e-17, y: 1.9305358e-16, z: -0.72434455, w: 0.92880356}
        tangentMode: 0
      - serializedVersion: 2
        time: 0.041666746
        value: {x: -6.73288e-17, y: -7.886115e-17, z: 0.75742126, w: 0.65292656}
        inSlope: {x: 1.3499603e-21, y: 3.2160813e-19, z: -0.0013082039, w: 0.0015177741}
        outSlope: {x: 1.3499603e-21, y: 3.2160813e-19, z: -0.0013082039, w: 0.0015177741}
        tangentMode: 0
      - serializedVersion: 2
        time: 2.0833337
        value: {x: -6.732709e-17, y: -7.855387e-17, z: 0.75616896, w: 0.6543765}
        inSlope: {x: -3.1763667e-21, y: -4.3285948e-19, z: 0.0017673934, w: -0.0020406207}
        outSlope: {x: -3.1763667e-21, y: -4.3285948e-19, z: 0.0017673934, w: -0.0020406207}
        tangentMode: 0
      - serializedVersion: 2
        time: 2.9166667
        value: {x: -6.732887e-17, y: -7.8874484e-17, z: 0.7574755, w: 0.6528637}
        inSlope: {x: -1.5881928e-21, y: -3.3876153e-19, z: 0.0013790183, w: -0.0015978874}
        outSlope: {x: -1.5881928e-21, y: -3.3876153e-19, z: 0.0013790183, w: -0.0015978874}
        tangentMode: 0
      m_PreInfinity: 2
      m_PostInfinity: 2
      m_RotationOrder: 4
    path: Root/Ball/Wrist/Hand 1/Middle_Finger_Base/Middle_Finger_M
  - curve:
      serializedVersion: 2
      m_Curve:
      - serializedVersion: 2
        time: 0
        value: {x: 0, y: 0, z: -0.45845464, w: 0.88871783}
        inSlope: {x: 0, y: 0, z: 0, w: 0}
        outSlope: {x: 0, y: 0, z: 0, w: 0}
        tangentMode: 0
      - serializedVersion: 2
        time: 2.9166667
        value: {x: 0, y: -0, z: -0.45845464, w: 0.88871783}
        inSlope: {x: 0, y: 0, z: 0, w: 0}
        outSlope: {x: 0, y: 0, z: 0, w: 0}
        tangentMode: 0
      m_PreInfinity: 2
      m_PostInfinity: 2
      m_RotationOrder: 4
    path: Root/Ball/Wrist/Hand 1/Middle_Finger_Base/Middle_Finger_M/Middle_Finger_End
  - curve:
      serializedVersion: 2
      m_Curve:
      - serializedVersion: 2
        time: 0.00000023841858
        value: {x: 0.669449, y: 0.30415618, z: 0.3059565, w: 0.6047461}
        inSlope: {x: -0.16480248, y: 0.37327373, z: -0.13121165, w: 0.07421909}
        outSlope: {x: -0.16480248, y: 0.37327373, z: -0.13121165, w: 0.07421909}
        tangentMode: 0
      - serializedVersion: 2
        time: 0.041666746
        value: {x: 0.669554, y: 0.30394974, z: 0.3057538, w: 0.60483605}
        inSlope: {x: 0.0025148415, y: -0.004944925, z: -0.00486732, w: 0.0021600742}
        outSlope: {x: 0.0025148415, y: -0.004944925, z: -0.00486732, w: 0.0021600742}
        tangentMode: 0
      - serializedVersion: 2
        time: 2.0833337
        value: {x: 0.6715748, y: 0.29995373, z: 0.3016278, w: 0.6066595}
        inSlope: {x: -0.0024282886, y: 0.0048304703, z: 0.005239238, w: -0.0023052648}
        outSlope: {x: -0.0024282886, y: 0.0048304703, z: 0.005239238, w: -0.0023052648}
        tangentMode: 0
      - serializedVersion: 2
        time: 2.9166667
        value: {x: 0.669449, y: 0.30415612, z: 0.3059565, w: 0.60474604}
        inSlope: {x: -0.0026679141, y: 0.005244275, z: 0.0051512914, w: -0.0022873965}
        outSlope: {x: -0.0026679141, y: 0.005244275, z: 0.0051512914, w: -0.0022873965}
        tangentMode: 0
      m_PreInfinity: 2
      m_PostInfinity: 2
      m_RotationOrder: 4
    path: Root/Ball/Wrist/Hand 1/Small_Finger_Base
  - curve:
      serializedVersion: 2
      m_Curve:
      - serializedVersion: 2
        time: 0.00000023841858
        value: {x: 6.510752e-17, y: -5.055901e-17, z: -0.63828087, w: 0.7698036}
        inSlope: {x: -9.39093e-18, y: 3.0012108e-17, z: 0.16212527, w: 0.13684605}
        outSlope: {x: -9.39093e-18, y: 3.0012108e-17, z: 0.16212527, w: 0.13684605}
        tangentMode: 0
      - serializedVersion: 2
        time: 0.12500024
        value: {x: 6.509923e-17, y: -5.0533837e-17, z: -0.6381426, w: 0.7699182}
        inSlope: {x: -6.8212687e-20, y: 2.0682183e-19, z: 0.001135112, w: 0.0009412775}
        outSlope: {x: -6.8212687e-20, y: 2.0682183e-19, z: 0.001135112, w: 0.0009412775}
        tangentMode: 0
      - serializedVersion: 2
        time: 2.1666667
        value: {x: 6.5047174e-17, y: -5.0376398e-17, z: -0.63727707, w: 0.7706348}
        inSlope: {x: 9.251171e-20, y: -2.7884538e-19, z: -0.0015342208, w: -0.0012688613}
        outSlope: {x: 9.251171e-20, y: -2.7884538e-19, z: -0.0015342208, w: -0.0012688613}
        tangentMode: 0
      - serializedVersion: 2
        time: 2.9166667
        value: {x: 6.510752e-17, y: -5.055901e-17, z: -0.63828087, w: 0.7698036}
        inSlope: {x: 6.892757e-20, y: -2.0948264e-19, z: -0.0011501356, w: -0.0009541548}
        outSlope: {x: 6.892757e-20, y: -2.0948264e-19, z: -0.0011501356, w: -0.0009541548}
        tangentMode: 0
      m_PreInfinity: 2
      m_PostInfinity: 2
      m_RotationOrder: 4
    path: Root/Ball/Wrist/Hand 1/Small_Finger_Base/Small_Finger_Middle
  - curve:
      serializedVersion: 2
      m_Curve:
      - serializedVersion: 2
        time: 0
        value: {x: 0, y: 0, z: -0.44631678, w: 0.89487505}
        inSlope: {x: 0, y: 0, z: 0, w: 0}
        outSlope: {x: 0, y: 0, z: 0, w: 0}
        tangentMode: 0
      - serializedVersion: 2
        time: 2.9166667
        value: {x: 0, y: -0, z: -0.44631678, w: 0.89487505}
        inSlope: {x: 0, y: 0, z: 0, w: 0}
        outSlope: {x: 0, y: 0, z: 0, w: 0}
        tangentMode: 0
      m_PreInfinity: 2
      m_PostInfinity: 2
      m_RotationOrder: 4
    path: Root/Ball/Wrist/Hand 1/Small_Finger_Base/Small_Finger_Middle/Small_Finger_End
  - curve:
      serializedVersion: 2
      m_Curve:
      - serializedVersion: 2
        time: 0
        value: {x: -0.000100605415, y: 0.001038988, z: -0.014624309, w: -0.99989253}
        inSlope: {x: 0, y: 0, z: 0, w: 0}
        outSlope: {x: 0, y: 0, z: 0, w: 0}
        tangentMode: 0
      - serializedVersion: 2
        time: 1.9166667
        value: {x: -0.000100605415, y: 0.001038988, z: -0.014624309, w: -0.99989253}
        inSlope: {x: 0, y: 0, z: 0, w: 0}
        outSlope: {x: 0, y: 0, z: 0, w: 0}
        tangentMode: 0
      - serializedVersion: 2
        time: 2.9166667
        value: {x: -0.000100605415, y: 0.001038988, z: -0.014624309, w: -0.99989253}
        inSlope: {x: 0, y: 0, z: 0, w: 0}
        outSlope: {x: 0, y: 0, z: 0, w: 0}
        tangentMode: 0
      m_PreInfinity: 2
      m_PostInfinity: 2
      m_RotationOrder: 4
    path: Root/Ball/Wrist/Hand 1/Weapon
  m_CompressedRotationCurves: []
  m_EulerCurves: []
  m_PositionCurves:
  - curve:
      serializedVersion: 2
      m_Curve:
      - serializedVersion: 2
        time: 0
        value: {x: -1.2786984, y: -0.0023154733, z: 0.02121284}
        inSlope: {x: 0, y: 0, z: 0}
        outSlope: {x: 0, y: 0, z: 0}
        tangentMode: 0
      - serializedVersion: 2
        time: 2.9166667
        value: {x: -1.2786984, y: -0.0023154733, z: 0.02121284}
        inSlope: {x: 0, y: 0, z: 0}
        outSlope: {x: 0, y: 0, z: 0}
        tangentMode: 0
      m_PreInfinity: 2
      m_PostInfinity: 2
      m_RotationOrder: 4
    path: Root
  - curve:
      serializedVersion: 2
      m_Curve:
      - serializedVersion: 2
        time: 0
        value: {x: -0.51823413, y: 0.0071266238, z: -6.0877773e-17}
        inSlope: {x: 0, y: 0, z: 0}
        outSlope: {x: 0, y: 0, z: 0}
        tangentMode: 0
      - serializedVersion: 2
        time: 2.9166667
        value: {x: -0.51823413, y: 0.0071266233, z: -6.0877773e-17}
        inSlope: {x: 0, y: 0, z: 0}
        outSlope: {x: 0, y: 0, z: 0}
        tangentMode: 0
      m_PreInfinity: 2
      m_PostInfinity: 2
      m_RotationOrder: 4
    path: Root/Ball
  - curve:
      serializedVersion: 2
      m_Curve:
      - serializedVersion: 2
        time: 0
        value: {x: -0.4569559, y: 0.00000045779927, z: -0.0000013496601}
        inSlope: {x: 0, y: 0, z: 0}
        outSlope: {x: 0, y: 0, z: 0}
        tangentMode: 0
      - serializedVersion: 2
        time: 2.9166667
        value: {x: -0.4569559, y: 0.0000004577993, z: -0.0000013496601}
        inSlope: {x: 0, y: 0, z: 0}
        outSlope: {x: 0, y: 0, z: 0}
        tangentMode: 0
      m_PreInfinity: 2
      m_PostInfinity: 2
      m_RotationOrder: 4
    path: Root/Ball/Wrist
  - curve:
      serializedVersion: 2
      m_Curve:
      - serializedVersion: 2
        time: 0
        value: {x: -0.058384392, y: 0.00008310375, z: -0.000050689116}
        inSlope: {x: 0.00000013411046, y: -6.5216343e-10, z: -0.0000000058748166}
        outSlope: {x: 0.00000013411046, y: -6.5216343e-10, z: -0.0000000058748166}
        tangentMode: 0
      - serializedVersion: 2
        time: 1.9583333
        value: {x: -0.05838456, y: 0.00008310515, z: -0.000050737388}
        inSlope: {x: -5.7097406e-16, y: 3.717279e-19, z: 2.9270242e-10}
        outSlope: {x: -1.3322575e-15, y: 8.673551e-19, z: 1.8094122e-10}
        tangentMode: 0
      - serializedVersion: 2
        time: 2.9166667
        value: {x: -0.058384564, y: 0.00008310516, z: -0.00005073763}
        inSlope: {x: -5.7097406e-16, y: 3.717279e-19, z: -4.7364573e-10}
        outSlope: {x: -5.7097406e-16, y: 3.717279e-19, z: -4.7364573e-10}
        tangentMode: 0
      m_PreInfinity: 2
      m_PostInfinity: 2
      m_RotationOrder: 4
    path: Root/Ball/Wrist/Hand 1
  - curve:
      serializedVersion: 2
      m_Curve:
      - serializedVersion: 2
        time: 0
        value: {x: 0.012374552, y: -0.061918437, z: -0.0026832707}
        inSlope: {x: 0, y: 0, z: 0}
        outSlope: {x: 0, y: 0, z: 0}
        tangentMode: 0
      - serializedVersion: 2
        time: 2.9166667
        value: {x: 0.012374552, y: -0.061918437, z: -0.0026832707}
        inSlope: {x: 0, y: 0, z: 0}
        outSlope: {x: 0, y: 0, z: 0}
        tangentMode: 0
      m_PreInfinity: 2
      m_PostInfinity: 2
      m_RotationOrder: 4
    path: Root/Ball/Wrist/Hand 1/Tumb_Base
  - curve:
      serializedVersion: 2
      m_Curve:
      - serializedVersion: 2
        time: 0
        value: {x: -0.038379014, y: 2.220446e-18, z: -3.1268372e-18}
        inSlope: {x: 0, y: 0, z: 0}
        outSlope: {x: 0, y: 0, z: 0}
        tangentMode: 0
      - serializedVersion: 2
        time: 2.9166667
        value: {x: -0.038379014, y: 2.220446e-18, z: -3.1268372e-18}
        inSlope: {x: 0, y: 0, z: 0}
        outSlope: {x: 0, y: 0, z: 0}
        tangentMode: 0
      m_PreInfinity: 2
      m_PostInfinity: 2
      m_RotationOrder: 4
    path: Root/Ball/Wrist/Hand 1/Tumb_Base/Tumb_Middle
  - curve:
      serializedVersion: 2
      m_Curve:
      - serializedVersion: 2
        time: 0
        value: {x: -0.031019244, y: -1.7763568e-17, z: -2.7982453e-18}
        inSlope: {x: 0, y: 0, z: 0}
        outSlope: {x: 0, y: 0, z: 0}
        tangentMode: 0
      - serializedVersion: 2
        time: 2.9166667
        value: {x: -0.031019246, y: -1.7763568e-17, z: -2.7982453e-18}
        inSlope: {x: 0, y: 0, z: 0}
        outSlope: {x: 0, y: 0, z: 0}
        tangentMode: 0
      m_PreInfinity: 2
      m_PostInfinity: 2
      m_RotationOrder: 4
    path: Root/Ball/Wrist/Hand 1/Tumb_Base/Tumb_Middle/Tumb_End
  - curve:
      serializedVersion: 2
      m_Curve:
      - serializedVersion: 2
        time: 0
        value: {x: -0.09071275, y: -0.05667044, z: -1.2692393e-17}
        inSlope: {x: 0, y: 0, z: 0}
        outSlope: {x: 0, y: 0, z: 0}
        tangentMode: 0
      - serializedVersion: 2
        time: 2.9166667
        value: {x: -0.09071275, y: -0.05667044, z: -1.2692394e-17}
        inSlope: {x: 0, y: 0, z: 0}
        outSlope: {x: 0, y: 0, z: 0}
        tangentMode: 0
      m_PreInfinity: 2
      m_PostInfinity: 2
      m_RotationOrder: 4
    path: Root/Ball/Wrist/Hand 1/Finger_Base
  - curve:
      serializedVersion: 2
      m_Curve:
      - serializedVersion: 2
        time: 0
        value: {x: -0.0426271, y: -0.003109991, z: -5.2303528e-18}
        inSlope: {x: 0, y: 0, z: 0}
        outSlope: {x: 0, y: 0, z: 0}
        tangentMode: 0
      - serializedVersion: 2
        time: 2.9166667
        value: {x: -0.0426271, y: -0.003109991, z: -5.2303528e-18}
        inSlope: {x: 0, y: 0, z: 0}
        outSlope: {x: 0, y: 0, z: 0}
        tangentMode: 0
      m_PreInfinity: 2
      m_PostInfinity: 2
      m_RotationOrder: 4
    path: Root/Ball/Wrist/Hand 1/Finger_Base/Finger_Middle
  - curve:
      serializedVersion: 2
      m_Curve:
      - serializedVersion: 2
        time: 0
        value: {x: -0.033796158, y: -8.881784e-18, z: -4.1387684e-18}
        inSlope: {x: 0, y: 0, z: 0}
        outSlope: {x: 0, y: 0, z: 0}
        tangentMode: 0
      - serializedVersion: 2
        time: 2.9166667
        value: {x: -0.033796158, y: -8.881784e-18, z: -4.1387684e-18}
        inSlope: {x: 0, y: 0, z: 0}
        outSlope: {x: 0, y: 0, z: 0}
        tangentMode: 0
      m_PreInfinity: 2
      m_PostInfinity: 2
      m_RotationOrder: 4
    path: Root/Ball/Wrist/Hand 1/Finger_Base/Finger_Middle/Finger_End
  - curve:
      serializedVersion: 2
      m_Curve:
      - serializedVersion: 2
        time: 0
        value: {x: -0.06358552, y: -0.08583553, z: -1.3078088e-17}
        inSlope: {x: 0, y: 0, z: 0}
        outSlope: {x: 0, y: 0, z: 0}
        tangentMode: 0
      - serializedVersion: 2
        time: 2.9166667
        value: {x: -0.06358552, y: -0.08583553, z: -1.3078089e-17}
        inSlope: {x: 0, y: 0, z: 0}
        outSlope: {x: 0, y: 0, z: 0}
        tangentMode: 0
      m_PreInfinity: 2
      m_PostInfinity: 2
      m_RotationOrder: 4
    path: Root/Ball/Wrist/Hand 1/Middle_Finger_Base
  - curve:
      serializedVersion: 2
      m_Curve:
      - serializedVersion: 2
        time: 0
        value: {x: -0.037023116, y: 1.5543122e-17, z: -4.5319786e-18}
        inSlope: {x: 0, y: 0, z: 0}
        outSlope: {x: 0, y: 0, z: 0}
        tangentMode: 0
      - serializedVersion: 2
        time: 2.9166667
        value: {x: -0.037023116, y: 1.5543122e-17, z: -4.5319786e-18}
        inSlope: {x: 0, y: 0, z: 0}
        outSlope: {x: 0, y: 0, z: 0}
        tangentMode: 0
      m_PreInfinity: 2
      m_PostInfinity: 2
      m_RotationOrder: 4
    path: Root/Ball/Wrist/Hand 1/Middle_Finger_Base/Middle_Finger_M
  - curve:
      serializedVersion: 2
      m_Curve:
      - serializedVersion: 2
        time: 0
        value: {x: -0.031698085, y: -2.220446e-18, z: -3.881852e-18}
        inSlope: {x: 0, y: 0, z: 0}
        outSlope: {x: 0, y: 0, z: 0}
        tangentMode: 0
      - serializedVersion: 2
        time: 2.9166667
        value: {x: -0.031698085, y: -2.220446e-18, z: -3.881852e-18}
        inSlope: {x: 0, y: 0, z: 0}
        outSlope: {x: 0, y: 0, z: 0}
        tangentMode: 0
      m_PreInfinity: 2
      m_PostInfinity: 2
      m_RotationOrder: 4
    path: Root/Ball/Wrist/Hand 1/Middle_Finger_Base/Middle_Finger_M/Middle_Finger_End
  - curve:
      serializedVersion: 2
      m_Curve:
      - serializedVersion: 2
        time: 0
        value: {x: -0.033291392, y: -0.10855086, z: -1.3216583e-17}
        inSlope: {x: 0, y: 0, z: 0}
        outSlope: {x: 0, y: 0, z: 0}
        tangentMode: 0
      - serializedVersion: 2
        time: 2.9166667
        value: {x: -0.033291392, y: -0.10855086, z: -1.3216583e-17}
        inSlope: {x: 0, y: 0, z: 0}
        outSlope: {x: 0, y: 0, z: 0}
        tangentMode: 0
      m_PreInfinity: 2
      m_PostInfinity: 2
      m_RotationOrder: 4
    path: Root/Ball/Wrist/Hand 1/Small_Finger_Base
  - curve:
      serializedVersion: 2
      m_Curve:
      - serializedVersion: 2
        time: 0
        value: {x: -0.039001487, y: 2.220446e-18, z: -4.7762095e-18}
        inSlope: {x: 0, y: 0, z: 0}
        outSlope: {x: 0, y: 0, z: 0}
        tangentMode: 0
      - serializedVersion: 2
        time: 2.9166667
        value: {x: -0.039001487, y: 2.220446e-18, z: -4.7762095e-18}
        inSlope: {x: 0, y: 0, z: 0}
        outSlope: {x: 0, y: 0, z: 0}
        tangentMode: 0
      m_PreInfinity: 2
      m_PostInfinity: 2
      m_RotationOrder: 4
    path: Root/Ball/Wrist/Hand 1/Small_Finger_Base/Small_Finger_Middle
  - curve:
      serializedVersion: 2
      m_Curve:
      - serializedVersion: 2
        time: 0
        value: {x: -0.029450696, y: 9.325873e-17, z: -3.6048254e-18}
        inSlope: {x: 0, y: 0, z: 0}
        outSlope: {x: 0, y: 0, z: 0}
        tangentMode: 0
      - serializedVersion: 2
        time: 2.9166667
        value: {x: -0.029450698, y: 9.325873e-17, z: -3.6048254e-18}
        inSlope: {x: 0, y: 0, z: 0}
        outSlope: {x: 0, y: 0, z: 0}
        tangentMode: 0
      m_PreInfinity: 2
      m_PostInfinity: 2
      m_RotationOrder: 4
    path: Root/Ball/Wrist/Hand 1/Small_Finger_Base/Small_Finger_Middle/Small_Finger_End
  - curve:
      serializedVersion: 2
      m_Curve:
      - serializedVersion: 2
        time: 0
        value: {x: -0.060635548, y: -0.03474548, z: 0.029265417}
        inSlope: {x: 0.0000017001502, y: -0.00000016288668, z: -0.000022553724}
        outSlope: {x: 0.0000010300557, y: -0.00000019623539, z: -0.00002127507}
        tangentMode: 0
      - serializedVersion: 2
        time: 2.0833333
        value: {x: -0.06115785, y: -0.034447495, z: 0.02927073}
        inSlope: {x: 0.0006183429, y: -0.00035016597, z: -0.000020686635}
        outSlope: {x: 0.000617502, y: -0.00035063332, z: -0.000020958874}
        tangentMode: 0
      - serializedVersion: 2
        time: 2.9166667
        value: {x: -0.060635548, y: -0.03474548, z: 0.029265417}
        inSlope: {x: -0.000000114535986, y: 0.00000037607595, z: -0.0000002479574}
        outSlope: {x: -0.000000114535986, y: 0.00000037607595, z: -0.0000002479574}
        tangentMode: 0
      m_PreInfinity: 2
      m_PostInfinity: 2
      m_RotationOrder: 4
    path: Root/Ball/Wrist/Hand 1/Weapon
  m_ScaleCurves:
  - curve:
      serializedVersion: 2
      m_Curve:
      - serializedVersion: 2
        time: 0
        value: {x: 1, y: 1, z: 1}
        inSlope: {x: 0, y: 0, z: 0}
        outSlope: {x: 0, y: 0, z: 0}
        tangentMode: 0
      - serializedVersion: 2
        time: 2.9166667
        value: {x: 1, y: 1, z: 1}
        inSlope: {x: 0, y: 0, z: 0}
        outSlope: {x: 0, y: 0, z: 0}
        tangentMode: 0
      m_PreInfinity: 2
      m_PostInfinity: 2
      m_RotationOrder: 4
    path: Root
  - curve:
      serializedVersion: 2
      m_Curve:
      - serializedVersion: 2
        time: 0
        value: {x: 1, y: 1, z: 1}
        inSlope: {x: 0, y: 0, z: 0}
        outSlope: {x: 0, y: 0, z: 0}
        tangentMode: 0
      - serializedVersion: 2
        time: 2.9166667
        value: {x: 1, y: 1, z: 1}
        inSlope: {x: 0, y: 0, z: 0}
        outSlope: {x: 0, y: 0, z: 0}
        tangentMode: 0
      m_PreInfinity: 2
      m_PostInfinity: 2
      m_RotationOrder: 4
    path: Root/Ball
  - curve:
      serializedVersion: 2
      m_Curve:
      - serializedVersion: 2
        time: 0
        value: {x: 1, y: 1, z: 1}
        inSlope: {x: 0, y: 0, z: 0}
        outSlope: {x: 0, y: 0, z: 0}
        tangentMode: 0
      - serializedVersion: 2
        time: 2.9166667
        value: {x: 1, y: 1, z: 1}
        inSlope: {x: 0, y: 0, z: 0}
        outSlope: {x: 0, y: 0, z: 0}
        tangentMode: 0
      m_PreInfinity: 2
      m_PostInfinity: 2
      m_RotationOrder: 4
    path: Root/Ball/Wrist
  - curve:
      serializedVersion: 2
      m_Curve:
      - serializedVersion: 2
        time: 0
        value: {x: 1, y: 1, z: 1}
        inSlope: {x: 0, y: 0, z: 0}
        outSlope: {x: 0, y: 0, z: 0}
        tangentMode: 0
      - serializedVersion: 2
        time: 2.9166667
        value: {x: 1, y: 1, z: 1}
        inSlope: {x: 0, y: 0, z: 0}
        outSlope: {x: 0, y: 0, z: 0}
        tangentMode: 0
      m_PreInfinity: 2
      m_PostInfinity: 2
      m_RotationOrder: 4
    path: Root/Ball/Wrist/Hand 1
  - curve:
      serializedVersion: 2
      m_Curve:
      - serializedVersion: 2
        time: 0
        value: {x: 1, y: 1, z: 1}
        inSlope: {x: 0, y: 0, z: 0}
        outSlope: {x: 0, y: 0, z: 0}
        tangentMode: 0
      - serializedVersion: 2
        time: 2.9166667
        value: {x: 1, y: 1, z: 1}
        inSlope: {x: 0, y: 0, z: 0}
        outSlope: {x: 0, y: 0, z: 0}
        tangentMode: 0
      m_PreInfinity: 2
      m_PostInfinity: 2
      m_RotationOrder: 4
    path: Root/Ball/Wrist/Hand 1/Tumb_Base
  - curve:
      serializedVersion: 2
      m_Curve:
      - serializedVersion: 2
        time: 0
        value: {x: 1, y: 1, z: 1}
        inSlope: {x: 0, y: 0, z: 0}
        outSlope: {x: 0, y: 0, z: 0}
        tangentMode: 0
      - serializedVersion: 2
        time: 2.9166667
        value: {x: 1, y: 1, z: 1}
        inSlope: {x: 0, y: 0, z: 0}
        outSlope: {x: 0, y: 0, z: 0}
        tangentMode: 0
      m_PreInfinity: 2
      m_PostInfinity: 2
      m_RotationOrder: 4
    path: Root/Ball/Wrist/Hand 1/Tumb_Base/Tumb_Middle
  - curve:
      serializedVersion: 2
      m_Curve:
      - serializedVersion: 2
        time: 0
        value: {x: 1, y: 1, z: 1}
        inSlope: {x: 0, y: 0, z: 0}
        outSlope: {x: 0, y: 0, z: 0}
        tangentMode: 0
      - serializedVersion: 2
        time: 2.9166667
        value: {x: 1, y: 1, z: 1}
        inSlope: {x: 0, y: 0, z: 0}
        outSlope: {x: 0, y: 0, z: 0}
        tangentMode: 0
      m_PreInfinity: 2
      m_PostInfinity: 2
      m_RotationOrder: 4
    path: Root/Ball/Wrist/Hand 1/Tumb_Base/Tumb_Middle/Tumb_End
  - curve:
      serializedVersion: 2
      m_Curve:
      - serializedVersion: 2
        time: 0
        value: {x: 1, y: 1, z: 1}
        inSlope: {x: 0, y: 0, z: 0}
        outSlope: {x: 0, y: 0, z: 0}
        tangentMode: 0
      - serializedVersion: 2
        time: 2.9166667
        value: {x: 1, y: 1, z: 1}
        inSlope: {x: 0, y: 0, z: 0}
        outSlope: {x: 0, y: 0, z: 0}
        tangentMode: 0
      m_PreInfinity: 2
      m_PostInfinity: 2
      m_RotationOrder: 4
    path: Root/Ball/Wrist/Hand 1/Finger_Base
  - curve:
      serializedVersion: 2
      m_Curve:
      - serializedVersion: 2
        time: 0
        value: {x: 1, y: 1, z: 1}
        inSlope: {x: 0, y: 0, z: 0}
        outSlope: {x: 0, y: 0, z: 0}
        tangentMode: 0
      - serializedVersion: 2
        time: 2.9166667
        value: {x: 1, y: 1, z: 1}
        inSlope: {x: 0, y: 0, z: 0}
        outSlope: {x: 0, y: 0, z: 0}
        tangentMode: 0
      m_PreInfinity: 2
      m_PostInfinity: 2
      m_RotationOrder: 4
    path: Root/Ball/Wrist/Hand 1/Finger_Base/Finger_Middle
  - curve:
      serializedVersion: 2
      m_Curve:
      - serializedVersion: 2
        time: 0
        value: {x: 1, y: 1, z: 1}
        inSlope: {x: 0, y: 0, z: 0}
        outSlope: {x: 0, y: 0, z: 0}
        tangentMode: 0
      - serializedVersion: 2
        time: 2.9166667
        value: {x: 1, y: 1, z: 1}
        inSlope: {x: 0, y: 0, z: 0}
        outSlope: {x: 0, y: 0, z: 0}
        tangentMode: 0
      m_PreInfinity: 2
      m_PostInfinity: 2
      m_RotationOrder: 4
    path: Root/Ball/Wrist/Hand 1/Finger_Base/Finger_Middle/Finger_End
  - curve:
      serializedVersion: 2
      m_Curve:
      - serializedVersion: 2
        time: 0
        value: {x: 1, y: 1, z: 1}
        inSlope: {x: 0, y: 0, z: 0}
        outSlope: {x: 0, y: 0, z: 0}
        tangentMode: 0
      - serializedVersion: 2
        time: 2.9166667
        value: {x: 1, y: 1, z: 1}
        inSlope: {x: 0, y: 0, z: 0}
        outSlope: {x: 0, y: 0, z: 0}
        tangentMode: 0
      m_PreInfinity: 2
      m_PostInfinity: 2
      m_RotationOrder: 4
    path: Root/Ball/Wrist/Hand 1/Middle_Finger_Base
  - curve:
      serializedVersion: 2
      m_Curve:
      - serializedVersion: 2
        time: 0
        value: {x: 1, y: 1, z: 1}
        inSlope: {x: 0, y: 0, z: 0}
        outSlope: {x: 0, y: 0, z: 0}
        tangentMode: 0
      - serializedVersion: 2
        time: 2.9166667
        value: {x: 1, y: 1, z: 1}
        inSlope: {x: 0, y: 0, z: 0}
        outSlope: {x: 0, y: 0, z: 0}
        tangentMode: 0
      m_PreInfinity: 2
      m_PostInfinity: 2
      m_RotationOrder: 4
    path: Root/Ball/Wrist/Hand 1/Middle_Finger_Base/Middle_Finger_M
  - curve:
      serializedVersion: 2
      m_Curve:
      - serializedVersion: 2
        time: 0
        value: {x: 1, y: 1, z: 1}
        inSlope: {x: 0, y: 0, z: 0}
        outSlope: {x: 0, y: 0, z: 0}
        tangentMode: 0
      - serializedVersion: 2
        time: 2.9166667
        value: {x: 1, y: 1, z: 1}
        inSlope: {x: 0, y: 0, z: 0}
        outSlope: {x: 0, y: 0, z: 0}
        tangentMode: 0
      m_PreInfinity: 2
      m_PostInfinity: 2
      m_RotationOrder: 4
    path: Root/Ball/Wrist/Hand 1/Middle_Finger_Base/Middle_Finger_M/Middle_Finger_End
  - curve:
      serializedVersion: 2
      m_Curve:
      - serializedVersion: 2
        time: 0
        value: {x: 1, y: 1, z: 1}
        inSlope: {x: 0, y: 0, z: 0}
        outSlope: {x: 0, y: 0, z: 0}
        tangentMode: 0
      - serializedVersion: 2
        time: 2.9166667
        value: {x: 1, y: 1, z: 1}
        inSlope: {x: 0, y: 0, z: 0}
        outSlope: {x: 0, y: 0, z: 0}
        tangentMode: 0
      m_PreInfinity: 2
      m_PostInfinity: 2
      m_RotationOrder: 4
    path: Root/Ball/Wrist/Hand 1/Small_Finger_Base
  - curve:
      serializedVersion: 2
      m_Curve:
      - serializedVersion: 2
        time: 0
        value: {x: 1, y: 1, z: 1}
        inSlope: {x: 0, y: 0, z: 0}
        outSlope: {x: 0, y: 0, z: 0}
        tangentMode: 0
      - serializedVersion: 2
        time: 2.9166667
        value: {x: 1, y: 1, z: 1}
        inSlope: {x: 0, y: 0, z: 0}
        outSlope: {x: 0, y: 0, z: 0}
        tangentMode: 0
      m_PreInfinity: 2
      m_PostInfinity: 2
      m_RotationOrder: 4
    path: Root/Ball/Wrist/Hand 1/Small_Finger_Base/Small_Finger_Middle
  - curve:
      serializedVersion: 2
      m_Curve:
      - serializedVersion: 2
        time: 0
        value: {x: 1, y: 1, z: 1}
        inSlope: {x: 0, y: 0, z: 0}
        outSlope: {x: 0, y: 0, z: 0}
        tangentMode: 0
      - serializedVersion: 2
        time: 2.9166667
        value: {x: 1, y: 1, z: 1}
        inSlope: {x: 0, y: 0, z: 0}
        outSlope: {x: 0, y: 0, z: 0}
        tangentMode: 0
      m_PreInfinity: 2
      m_PostInfinity: 2
      m_RotationOrder: 4
    path: Root/Ball/Wrist/Hand 1/Small_Finger_Base/Small_Finger_Middle/Small_Finger_End
  - curve:
      serializedVersion: 2
      m_Curve:
      - serializedVersion: 2
        time: 0
        value: {x: 1, y: 1, z: 1}
        inSlope: {x: 0, y: 0, z: 0}
        outSlope: {x: 0, y: 0, z: 0}
        tangentMode: 0
      - serializedVersion: 2
        time: 2.9166667
        value: {x: 1, y: 1, z: 1}
        inSlope: {x: 0, y: 0, z: 0}
        outSlope: {x: 0, y: 0, z: 0}
        tangentMode: 0
      m_PreInfinity: 2
      m_PostInfinity: 2
      m_RotationOrder: 4
    path: Root/Ball/Wrist/Hand 1/Weapon
  m_FloatCurves: []
  m_PPtrCurves: []
  m_SampleRate: 30
  m_WrapMode: 2
  m_Bounds:
    m_Center: {x: 0, y: 0, z: 0}
    m_Extent: {x: 0, y: 0, z: 0}
  m_ClipBindingConstant:
    genericBindings:
    - serializedVersion: 2
      path: 2250244359
      attribute: 1
      script: {fileID: 0}
      typeID: 4
      customType: 0
      isPPtrCurve: 0
    - serializedVersion: 2
      path: 3066451557
      attribute: 2
      script: {fileID: 0}
      typeID: 4
      customType: 0
      isPPtrCurve: 0
    - serializedVersion: 2
      path: 3908975678
      attribute: 2
      script: {fileID: 0}
      typeID: 4
      customType: 0
      isPPtrCurve: 0
    - serializedVersion: 2
      path: 2231110683
      attribute: 2
      script: {fileID: 0}
      typeID: 4
      customType: 0
      isPPtrCurve: 0
    - serializedVersion: 2
      path: 803843175
      attribute: 2
      script: {fileID: 0}
      typeID: 4
      customType: 0
      isPPtrCurve: 0
    - serializedVersion: 2
      path: 989086316
      attribute: 2
      script: {fileID: 0}
      typeID: 4
      customType: 0
      isPPtrCurve: 0
    - serializedVersion: 2
      path: 1850503892
      attribute: 2
      script: {fileID: 0}
      typeID: 4
      customType: 0
      isPPtrCurve: 0
    - serializedVersion: 2
      path: 2248433623
      attribute: 2
      script: {fileID: 0}
      typeID: 4
      customType: 0
      isPPtrCurve: 0
    - serializedVersion: 2
      path: 1703548319
      attribute: 2
      script: {fileID: 0}
      typeID: 4
      customType: 0
      isPPtrCurve: 0
    - serializedVersion: 2
      path: 3277555179
      attribute: 2
      script: {fileID: 0}
      typeID: 4
      customType: 0
      isPPtrCurve: 0
    - serializedVersion: 2
      path: 4255437976
      attribute: 2
      script: {fileID: 0}
      typeID: 4
      customType: 0
      isPPtrCurve: 0
    - serializedVersion: 2
      path: 261776182
      attribute: 2
      script: {fileID: 0}
      typeID: 4
      customType: 0
      isPPtrCurve: 0
    - serializedVersion: 2
      path: 3066451557
      attribute: 1
      script: {fileID: 0}
      typeID: 4
      customType: 0
      isPPtrCurve: 0
    - serializedVersion: 2
      path: 3908975678
      attribute: 1
      script: {fileID: 0}
      typeID: 4
      customType: 0
      isPPtrCurve: 0
    - serializedVersion: 2
      path: 2208879077
      attribute: 1
      script: {fileID: 0}
      typeID: 4
      customType: 0
      isPPtrCurve: 0
    - serializedVersion: 2
      path: 2231110683
      attribute: 1
      script: {fileID: 0}
      typeID: 4
      customType: 0
      isPPtrCurve: 0
    - serializedVersion: 2
      path: 803843175
      attribute: 1
      script: {fileID: 0}
      typeID: 4
      customType: 0
      isPPtrCurve: 0
    - serializedVersion: 2
      path: 989086316
      attribute: 1
      script: {fileID: 0}
      typeID: 4
      customType: 0
      isPPtrCurve: 0
    - serializedVersion: 2
      path: 860118355
      attribute: 1
      script: {fileID: 0}
      typeID: 4
      customType: 0
      isPPtrCurve: 0
    - serializedVersion: 2
      path: 1850503892
      attribute: 1
      script: {fileID: 0}
      typeID: 4
      customType: 0
      isPPtrCurve: 0
    - serializedVersion: 2
      path: 2248433623
      attribute: 1
      script: {fileID: 0}
      typeID: 4
      customType: 0
      isPPtrCurve: 0
    - serializedVersion: 2
      path: 3212912986
      attribute: 1
      script: {fileID: 0}
      typeID: 4
      customType: 0
      isPPtrCurve: 0
    - serializedVersion: 2
      path: 1703548319
      attribute: 1
      script: {fileID: 0}
      typeID: 4
      customType: 0
      isPPtrCurve: 0
    - serializedVersion: 2
      path: 3277555179
      attribute: 1
      script: {fileID: 0}
      typeID: 4
      customType: 0
      isPPtrCurve: 0
    - serializedVersion: 2
      path: 1868202481
      attribute: 1
      script: {fileID: 0}
      typeID: 4
      customType: 0
      isPPtrCurve: 0
    - serializedVersion: 2
      path: 4255437976
      attribute: 1
      script: {fileID: 0}
      typeID: 4
      customType: 0
      isPPtrCurve: 0
    - serializedVersion: 2
      path: 261776182
      attribute: 1
      script: {fileID: 0}
      typeID: 4
      customType: 0
      isPPtrCurve: 0
    - serializedVersion: 2
      path: 4017759135
      attribute: 1
      script: {fileID: 0}
      typeID: 4
      customType: 0
      isPPtrCurve: 0
    - serializedVersion: 2
      path: 2208879077
      attribute: 2
      script: {fileID: 0}
      typeID: 4
      customType: 0
      isPPtrCurve: 0
    - serializedVersion: 2
      path: 860118355
      attribute: 2
      script: {fileID: 0}
      typeID: 4
      customType: 0
      isPPtrCurve: 0
    - serializedVersion: 2
      path: 3212912986
      attribute: 2
      script: {fileID: 0}
      typeID: 4
      customType: 0
      isPPtrCurve: 0
    - serializedVersion: 2
      path: 1868202481
      attribute: 2
      script: {fileID: 0}
      typeID: 4
      customType: 0
      isPPtrCurve: 0
    - serializedVersion: 2
      path: 4017759135
      attribute: 2
      script: {fileID: 0}
      typeID: 4
      customType: 0
      isPPtrCurve: 0
    - serializedVersion: 2
      path: 2250244359
      attribute: 2
      script: {fileID: 0}
      typeID: 4
      customType: 0
      isPPtrCurve: 0
    - serializedVersion: 2
      path: 3066451557
      attribute: 3
      script: {fileID: 0}
      typeID: 4
      customType: 0
      isPPtrCurve: 0
    - serializedVersion: 2
      path: 3908975678
      attribute: 3
      script: {fileID: 0}
      typeID: 4
      customType: 0
      isPPtrCurve: 0
    - serializedVersion: 2
      path: 2208879077
      attribute: 3
      script: {fileID: 0}
      typeID: 4
      customType: 0
      isPPtrCurve: 0
    - serializedVersion: 2
      path: 2231110683
      attribute: 3
      script: {fileID: 0}
      typeID: 4
      customType: 0
      isPPtrCurve: 0
    - serializedVersion: 2
      path: 803843175
      attribute: 3
      script: {fileID: 0}
      typeID: 4
      customType: 0
      isPPtrCurve: 0
    - serializedVersion: 2
      path: 989086316
      attribute: 3
      script: {fileID: 0}
      typeID: 4
      customType: 0
      isPPtrCurve: 0
    - serializedVersion: 2
      path: 860118355
      attribute: 3
      script: {fileID: 0}
      typeID: 4
      customType: 0
      isPPtrCurve: 0
    - serializedVersion: 2
      path: 1850503892
      attribute: 3
      script: {fileID: 0}
      typeID: 4
      customType: 0
      isPPtrCurve: 0
    - serializedVersion: 2
      path: 2248433623
      attribute: 3
      script: {fileID: 0}
      typeID: 4
      customType: 0
      isPPtrCurve: 0
    - serializedVersion: 2
      path: 3212912986
      attribute: 3
      script: {fileID: 0}
      typeID: 4
      customType: 0
      isPPtrCurve: 0
    - serializedVersion: 2
      path: 1703548319
      attribute: 3
      script: {fileID: 0}
      typeID: 4
      customType: 0
      isPPtrCurve: 0
    - serializedVersion: 2
      path: 3277555179
      attribute: 3
      script: {fileID: 0}
      typeID: 4
      customType: 0
      isPPtrCurve: 0
    - serializedVersion: 2
      path: 1868202481
      attribute: 3
      script: {fileID: 0}
      typeID: 4
      customType: 0
      isPPtrCurve: 0
    - serializedVersion: 2
      path: 4255437976
      attribute: 3
      script: {fileID: 0}
      typeID: 4
      customType: 0
      isPPtrCurve: 0
    - serializedVersion: 2
      path: 261776182
      attribute: 3
      script: {fileID: 0}
      typeID: 4
      customType: 0
      isPPtrCurve: 0
    - serializedVersion: 2
      path: 4017759135
      attribute: 3
      script: {fileID: 0}
      typeID: 4
      customType: 0
      isPPtrCurve: 0
    - serializedVersion: 2
      path: 2250244359
      attribute: 3
      script: {fileID: 0}
      typeID: 4
      customType: 0
      isPPtrCurve: 0
    pptrCurveMapping: []
  m_AnimationClipSettings:
    serializedVersion: 2
    m_AdditiveReferencePoseClip: {fileID: 0}
    m_AdditiveReferencePoseTime: 0
    m_StartTime: 0
    m_StopTime: 2.9166667
    m_OrientationOffsetY: 0
    m_Level: 0
    m_CycleOffset: 0
    m_HasAdditiveReferencePose: 0
    m_LoopTime: 0
    m_LoopBlend: 0
    m_LoopBlendOrientation: 0
    m_LoopBlendPositionY: 0
    m_LoopBlendPositionXZ: 0
    m_KeepOriginalOrientation: 0
    m_KeepOriginalPositionY: 1
    m_KeepOriginalPositionXZ: 0
    m_HeightFromFeet: 0
    m_Mirror: 0
  m_EditorCurves: []
  m_EulerEditorCurves: []
  m_HasGenericRootTransform: 0
  m_HasMotionFloatCurves: 0
  m_GenerateMotionCurves: 0
  m_Events: []
