%YAML 1.1
%TAG !u! tag:unity3d.com,2011:
--- !u!74 &7400000
AnimationClip:
  m_ObjectHideFlags: 0
  m_PrefabParentObject: {fileID: 0}
  m_PrefabInternal: {fileID: 0}
  m_Name: ShootEditable
  serializedVersion: 6
  m_Legacy: 1
  m_Compressed: 0
  m_UseHighQualityCurve: 1
  m_RotationCurves:
  - curve:
      serializedVersion: 2
      m_Curve:
      - serializedVersion: 2
        time: 0
        value: {x: 0.10494463, y: 0.86279535, z: 0.49069116, w: -0.061587155}
        inSlope: {x: 2.073318, y: -0.20692062, z: -0.18905786, w: -1.0773959}
        outSlope: {x: 2.073318, y: -0.20692062, z: -0.18905786, w: -1.0773959}
        tangentMode: 0
      - serializedVersion: 2
        time: 0.083333336
        value: {x: 0.25950187, y: 0.8684012, z: 0.40532386, w: -0.11937617}
        inSlope: {x: 1.497869, y: 0.050278895, z: -1.1064969, w: -0.33310223}
        outSlope: {x: 1.497869, y: 0.050278895, z: -1.1064969, w: -0.33310223}
        tangentMode: 0
      - serializedVersion: 2
        time: 0.16666666
        value: {x: 0.33282265, y: 0.86575645, z: 0.35037062, w: -0.13013543}
        inSlope: {x: 0.22554775, y: -0.014653454, z: -0.17457573, w: -0.02121682}
        outSlope: {x: 0.22554775, y: -0.014653454, z: -0.17457573, w: -0.02121682}
        tangentMode: 0
      - serializedVersion: 2
        time: 0.25
        value: {x: 0.32534447, y: 0.8681458, z: 0.35241315, w: -0.12758835}
        inSlope: {x: -0.1711686, y: 0.053653494, z: 0.046096098, w: 0.058676645}
        outSlope: {x: -0.1711686, y: 0.053653494, z: 0.046096098, w: 0.058676645}
        tangentMode: 0
      - serializedVersion: 2
        time: 0.6666667
        value: {x: 0.14141302, y: 0.8990294, z: 0.40990737, w: -0.0610281}
        inSlope: {x: -0.54943335, y: 0.007010949, z: 0.20780687, w: 0.21657431}
        outSlope: {x: -0.54943335, y: 0.007010949, z: 0.20780687, w: 0.21657431}
        tangentMode: 0
      - serializedVersion: 2
        time: 1
        value: {x: 0.067644104, y: 0.8748762, z: 0.47816133, w: -0.03711662}
        inSlope: {x: -0.00581119, y: -0.045038983, z: 0.0830241, w: -0.004182194}
        outSlope: {x: -0.00581119, y: -0.045038983, z: 0.0830241, w: -0.004182194}
        tangentMode: 0
      - serializedVersion: 2
        time: 1.0833334
        value: {x: 0.06743004, y: 0.87061334, z: 0.48587975, w: -0.03750433}
        inSlope: {x: -0.0055946335, y: -0.05651661, z: 0.10172754, w: -0.006025354}
        outSlope: {x: -0.0055946335, y: -0.05651661, z: 0.10172754, w: -0.006025354}
        tangentMode: 0
      - serializedVersion: 2
        time: 1.125
        value: {x: 0.06732531, y: 0.8685397, z: 0.48957697, w: -0.03768975}
        inSlope: {x: 0.4501755, y: -0.09381589, z: 0.057736926, w: -0.2889942}
        outSlope: {x: 0.4501755, y: -0.09381589, z: 0.057736926, w: -0.2889942}
        tangentMode: 0
      m_PreInfinity: 2
      m_PostInfinity: 2
      m_RotationOrder: 4
    path: Root
  - curve:
      serializedVersion: 2
      m_Curve:
      - serializedVersion: 2
        time: 0
        value: {x: 0.00000065856705, y: 0.0000000024227045, z: -0.22785637, w: 0.9736948}
        inSlope: {x: 0.000014669584, y: -0.000018480618, z: -4.810594, w: -1.0462675}
        outSlope: {x: 0.000014669584, y: -0.000018480618, z: -4.810594, w: -1.0462675}
        tangentMode: 0
      - serializedVersion: 2
        time: 0.125
        value: {x: 0.0000018062814, y: -0.0000008407785, z: -0.6203606, w: 0.7843167}
        inSlope: {x: 0.0000033722577, y: -0.000004858511, z: -1.3282034, w: -0.98508954}
        outSlope: {x: 0.0000033722577, y: -0.000004858511, z: -1.3282034, w: -0.98508954}
        tangentMode: 0
      - serializedVersion: 2
        time: 0.20833334
        value: {x: 0.0000018677562, y: -0.00000094666404, z: -0.6462525, w: 0.76312363}
        inSlope: {x: -0.00000036447773, y: 0.0000006596922, z: 0.15678836, w: 0.1316793}
        outSlope: {x: -0.00000036447773, y: 0.0000006596922, z: 0.15678836, w: 0.1316793}
        tangentMode: 0
      - serializedVersion: 2
        time: 0.5833334
        value: {x: 0.0000011140829, y: -0.00000016901028, z: -0.37473407, w: 0.92713237}
        inSlope: {x: -0.0000035995208, y: 0.0000019890817, z: 1.1790187, w: 0.47550607}
        outSlope: {x: -0.0000035995208, y: 0.0000019890817, z: 1.1790187, w: 0.47550607}
        tangentMode: 0
      - serializedVersion: 2
        time: 0.75000006
        value: {x: 0.00000054059484, y: 0.000000022922947, z: -0.19001415, w: 0.98178136}
        inSlope: {x: -0.0000022349905, y: 0.00000033023537, z: 0.7177551, w: 0.14370632}
        outSlope: {x: -0.0000022349905, y: 0.00000033023537, z: 0.7177551, w: 0.14370632}
        tangentMode: 0
      - serializedVersion: 2
        time: 1.0416666
        value: {x: 0.00000034772142, y: 0.000000036795566, z: -0.12777734, w: 0.99180293}
        inSlope: {x: -9.769963e-15, y: 9.367507e-17, z: 0.0000000031432137, w: 4.0745363e-10}
        outSlope: {x: -9.769963e-15, y: 9.367507e-17, z: 0.0000000031432137, w: 4.0745363e-10}
        tangentMode: 0
      - serializedVersion: 2
        time: 1.0833334
        value: {x: 0.00000034800624, y: 0.0000000367929, z: -0.12786978, w: 0.99179095}
        inSlope: {x: 0.0000000034201484, y: -3.2187523e-11, z: -0.001109896, w: -0.00014376613}
        outSlope: {x: 0.0000000034201484, y: -3.2187523e-11, z: -0.001109896, w: -0.00014376613}
        tangentMode: 0
      - serializedVersion: 2
        time: 1.125
        value: {x: 0.00000034800644, y: 0.000000036792883, z: -0.12786983, w: 0.99179095}
        inSlope: {x: 0.0000037267334, y: -0.0000004124422, z: -1.1998402, w: -0.217154}
        outSlope: {x: 0.0000037267334, y: -0.0000004124422, z: -1.1998402, w: -0.217154}
        tangentMode: 0
      m_PreInfinity: 2
      m_PostInfinity: 2
      m_RotationOrder: 4
    path: Root/Ball
  - curve:
      serializedVersion: 2
      m_Curve:
      - serializedVersion: 2
        time: 0
        value: {x: -0.7163419, y: 0.025096107, z: -0.024413949, w: 0.69687045}
        inSlope: {x: 0, y: 0, z: 0, w: 0}
        outSlope: {x: 0, y: 0, z: 0, w: 0}
        tangentMode: 0
      - serializedVersion: 2
        time: 1.125
        value: {x: -0.71634185, y: 0.025096105, z: -0.02441395, w: 0.69687045}
        inSlope: {x: 0, y: 0, z: 0, w: 0}
        outSlope: {x: 0, y: 0, z: 0, w: 0}
        tangentMode: 0
      m_PreInfinity: 2
      m_PostInfinity: 2
      m_RotationOrder: 4
    path: Root/Ball/Wrist
  - curve:
      serializedVersion: 2
      m_Curve:
      - serializedVersion: 2
        time: 0
        value: {x: -0.20843652, y: -0.18869264, z: -0.46322942, w: 0.84045696}
        inSlope: {x: 0.7298514, y: -1.7783904, z: -0.4403286, w: -0.4541023}
        outSlope: {x: 0.7298514, y: -1.7783904, z: -0.4403286, w: -0.4541023}
        tangentMode: 0
      - serializedVersion: 2
        time: 0.041666664
        value: {x: -0.2088937, y: -0.27534458, z: -0.4632874, w: 0.8160353}
        inSlope: {x: -0.6508301, y: -1.8652515, z: 0.28973612, w: -0.6383343}
        outSlope: {x: -0.6508301, y: -1.8652515, z: 0.28973612, w: -0.6383343}
        tangentMode: 0
      - serializedVersion: 2
        time: 0.083333336
        value: {x: -0.26267236, y: -0.34413028, z: -0.43908474, w: 0.78726244}
        inSlope: {x: -1.3166792, y: -1.2948449, z: 0.6278518, w: -0.63216585}
        outSlope: {x: -1.3166792, y: -1.2948449, z: 0.6278518, w: -0.63216585}
        tangentMode: 0
      - serializedVersion: 2
        time: 0.125
        value: {x: -0.318617, y: -0.38324833, z: -0.41096643, w: 0.7633548}
        inSlope: {x: -0.9669442, y: -0.6184902, z: 0.50346136, w: -0.40396285}
        outSlope: {x: -0.9669442, y: -0.6184902, z: 0.50346136, w: -0.40396285}
        tangentMode: 0
      - serializedVersion: 2
        time: 0.25
        value: {x: -0.34170204, y: -0.39092612, z: -0.39731106, w: 0.7566772}
        inSlope: {x: 0.034280427, y: 0.10972026, z: -0.0049620876, w: 0.069336906}
        outSlope: {x: 0.034280427, y: 0.10972026, z: -0.0049620876, w: 0.069336906}
        tangentMode: 0
      - serializedVersion: 2
        time: 0.6666667
        value: {x: -0.31505534, y: -0.2490025, z: -0.40027866, w: 0.82372016}
        inSlope: {x: 0.06781913, y: 0.5114255, z: -0.010314701, w: 0.17579705}
        outSlope: {x: 0.06781913, y: 0.5114255, z: -0.010314701, w: 0.17579705}
        tangentMode: 0
      - serializedVersion: 2
        time: 0.87500006
        value: {x: -0.27620608, y: -0.1799509, z: -0.42337504, w: 0.8438492}
        inSlope: {x: 0.29661375, y: 0.1749995, z: -0.19108383, w: 0.038774017}
        outSlope: {x: 0.29661375, y: 0.1749995, z: -0.19108383, w: 0.038774017}
        tangentMode: 0
      - serializedVersion: 2
        time: 1.0833334
        value: {x: -0.23756856, y: -0.15637058, z: -0.44718906, w: 0.8480162}
        inSlope: {x: 0.09816912, y: 0.14763266, z: -0.058517877, w: 0.02397322}
        outSlope: {x: 0.09816912, y: 0.14763266, z: -0.058517877, w: 0.02397322}
        tangentMode: 0
      - serializedVersion: 2
        time: 1.125
        value: {x: -0.2347696, y: -0.14969324, z: -0.44886696, w: 0.84911346}
        inSlope: {x: 0.3495848, y: -0.38786513, z: -0.19248444, w: -0.09071096}
        outSlope: {x: 0.3495848, y: -0.38786513, z: -0.19248444, w: -0.09071096}
        tangentMode: 0
      m_PreInfinity: 2
      m_PostInfinity: 2
      m_RotationOrder: 4
    path: Root/Ball/Wrist/Hand 1
  - curve:
      serializedVersion: 2
      m_Curve:
      - serializedVersion: 2
        time: 0
        value: {x: 0.7227394, y: 0.0063849334, z: -0.6002079, w: -0.34257492}
        inSlope: {x: 5.9033546, y: -5.0375915, z: 0.17399931, w: 1.8983564}
        outSlope: {x: 5.9033546, y: -5.0375915, z: 0.17399931, w: 1.8983564}
        tangentMode: 0
      - serializedVersion: 2
        time: 0.041666664
        value: {x: 0.72424716, y: 0.12735085, z: -0.49047843, w: -0.46763092}
        inSlope: {x: 0.031763792, y: 1.7530172, z: 1.7781348, w: -1.8437667}
        outSlope: {x: 0.031763792, y: 1.7530172, z: 1.7781348, w: -1.8437667}
        tangentMode: 0
      - serializedVersion: 2
        time: 0.083333336
        value: {x: 0.7253864, y: 0.1524697, z: -0.45203003, w: -0.49622214}
        inSlope: {x: 0.015854357, y: 0.36187002, z: 0.55906135, w: -0.40884086}
        outSlope: {x: 0.015854357, y: 0.36187002, z: 0.55906135, w: -0.40884086}
        tangentMode: 0
      - serializedVersion: 2
        time: 0.16666666
        value: {x: 0.72477174, y: 0.15900646, z: -0.44460118, w: -0.5017496}
        inSlope: {x: -0.012857437, y: 0.017984215, z: -0.020820376, w: 0.0055518122}
        outSlope: {x: -0.012857437, y: 0.017984215, z: -0.020820376, w: 0.0055518122}
        tangentMode: 0
      - serializedVersion: 2
        time: 0.5416667
        value: {x: 0.71105355, y: 0.13766824, z: -0.52286065, w: -0.4495187}
        inSlope: {x: -0.03969957, y: -0.2502564, z: -0.44987446, w: 0.38835567}
        outSlope: {x: -0.03969957, y: -0.2502564, z: -0.44987446, w: 0.38835567}
        tangentMode: 0
      - serializedVersion: 2
        time: 0.62500006
        value: {x: 0.70898557, y: 0.105344184, z: -0.56706065, w: -0.40581328}
        inSlope: {x: 0.0065245796, y: -0.72535837, z: -0.68784094, w: 0.829761}
        outSlope: {x: 0.0065245796, y: -0.72535837, z: -0.68784094, w: 0.829761}
        tangentMode: 0
      - serializedVersion: 2
        time: 0.6666667
        value: {x: 0.71016204, y: 0.064676836, z: -0.60037905, w: -0.3619831}
        inSlope: {x: -0.0019626413, y: -0.77903295, z: -0.65102243, w: 0.891475}
        outSlope: {x: -0.0019626413, y: -0.77903295, z: -0.65102243, w: 0.891475}
        tangentMode: 0
      - serializedVersion: 2
        time: 0.7083334
        value: {x: 0.708822, y: 0.040424798, z: -0.6213125, w: -0.33152372}
        inSlope: {x: -0.038096648, y: -0.2897517, z: -0.3120838, w: 0.43380848}
        outSlope: {x: -0.038096648, y: -0.2897517, z: -0.3120838, w: 0.43380848}
        tangentMode: 0
      - serializedVersion: 2
        time: 0.75000006
        value: {x: 0.7069873, y: 0.04053085, z: -0.62638605, w: -0.32583237}
        inSlope: {x: -0.023552647, y: -0.023927787, z: -0.080620036, w: 0.100033164}
        outSlope: {x: -0.023552647, y: -0.023927787, z: -0.080620036, w: 0.100033164}
        tangentMode: 0
      - serializedVersion: 2
        time: 1.0416666
        value: {x: 0.71365577, y: 0.017769959, z: -0.62072957, w: -0.324152}
        inSlope: {x: 0.007698293, y: -0.048159055, z: -0.003470417, w: 0.021003112}
        outSlope: {x: 0.007698293, y: -0.048159055, z: -0.003470417, w: 0.021003112}
        tangentMode: 0
      - serializedVersion: 2
        time: 1.0833334
        value: {x: 0.71400017, y: 0.015507115, z: -0.62093234, w: -0.3231197}
        inSlope: {x: 0.001081456, y: -0.045443535, z: -0.020336162, w: 0.039350513}
        outSlope: {x: 0.001081456, y: -0.045443535, z: -0.020336162, w: 0.039350513}
        tangentMode: 0
      - serializedVersion: 2
        time: 1.125
        value: {x: 0.7137459, y: 0.0139829945, z: -0.62242424, w: -0.32087278}
        inSlope: {x: 0.1048709, y: -0.109466285, z: 0.24869324, w: -0.2334629}
        outSlope: {x: 0.1048709, y: -0.109466285, z: 0.24869324, w: -0.2334629}
        tangentMode: 0
      m_PreInfinity: 2
      m_PostInfinity: 2
      m_RotationOrder: 4
    path: Root/Ball/Wrist/Hand 1/Tumb_Base
  - curve:
      serializedVersion: 2
      m_Curve:
      - serializedVersion: 2
        time: 0
        value: {x: 4.5404486e-18, y: 4.1853614e-18, z: -0.00022243321, w: 1}
        inSlope: {x: -1.2011748e-17, y: -5.887117e-17, z: 0.44363856, w: -0.15812379}
        outSlope: {x: -1.2011748e-17, y: -5.887117e-17, z: 0.44363856, w: -0.15812379}
        tangentMode: 0
      - serializedVersion: 2
        time: 0.041666664
        value: {x: -1.716474e-17, y: -3.412453e-17, z: 0.35415676, w: 0.9351861}
        inSlope: {x: -2.7055262e-16, y: -5.5629693e-16, z: 4.945478, w: -1.0652547}
        outSlope: {x: -2.7055262e-16, y: -5.5629693e-16, z: 4.945478, w: -1.0652547}
        tangentMode: 0
      - serializedVersion: 2
        time: 0.083333336
        value: {x: -1.8005601e-17, y: -4.2172715e-17, z: 0.41190073, w: 0.9112288}
        inSlope: {x: -1.0666758e-17, y: -1.1277737e-16, z: 0.80542296, w: -0.33903977}
        outSlope: {x: -1.0666758e-17, y: -1.1277737e-16, z: 0.80542296, w: -0.33903977}
        tangentMode: 0
      - serializedVersion: 2
        time: 0.125
        value: {x: -1.8053637e-17, y: -4.3522644e-17, z: 0.42127535, w: 0.9069328}
        inSlope: {x: -6.220133e-19, y: -1.8034256e-17, z: 0.1251776, w: -0.05745148}
        outSlope: {x: -6.220133e-19, y: -1.8034256e-17, z: 0.1251776, w: -0.05745148}
        tangentMode: 0
      - serializedVersion: 2
        time: 0.33333334
        value: {x: -1.7999409e-17, y: -4.2038692e-17, z: 0.4109654, w: 0.91165096}
        inSlope: {x: 1.0314678e-18, y: 2.078595e-17, z: -0.14528418, w: 0.065267794}
        outSlope: {x: 1.0314678e-18, y: 2.078595e-17, z: -0.14528418, w: 0.065267794}
        tangentMode: 0
      - serializedVersion: 2
        time: 0.5416667
        value: {x: -1.6440226e-17, y: -3.0399907e-17, z: 0.32622564, w: 0.94529194}
        inSlope: {x: 2.7814133e-17, y: 1.1672069e-16, z: -0.89551353, w: 0.30211264}
        outSlope: {x: 2.7814133e-17, y: 1.1672069e-16, z: -0.89551353, w: 0.30211264}
        tangentMode: 0
      - serializedVersion: 2
        time: 0.5833334
        value: {x: -1.49035e-17, y: -2.4746165e-17, z: 0.28210112, w: 0.9593847}
        inSlope: {x: 5.688662e-17, y: 1.6459137e-16, z: -1.3370373, w: 0.37637812}
        outSlope: {x: 5.688662e-17, y: 1.6459137e-16, z: -1.3370373, w: 0.37637812}
        tangentMode: 0
      - serializedVersion: 2
        time: 0.62500006
        value: {x: -1.1699672e-17, y: -1.6683953e-17, z: 0.21480581, w: 0.9766568}
        inSlope: {x: 1.4761672e-16, y: 2.6321184e-16, z: -2.4096992, w: 0.44766724}
        outSlope: {x: 1.4761672e-16, y: 2.6321184e-16, z: -2.4096992, w: 0.44766724}
        tangentMode: 0
      - serializedVersion: 2
        time: 0.6666667
        value: {x: -2.6021138e-18, y: -2.811856e-18, z: 0.08129296, w: 0.9966903}
        inSlope: {x: 1.9488154e-16, y: 2.504319e-16, z: -2.5803404, w: 0.28011867}
        outSlope: {x: 1.9488154e-16, y: 2.504319e-16, z: -2.5803404, w: 0.28011867}
        tangentMode: 0
      - serializedVersion: 2
        time: 0.7083334
        value: {x: 4.5404502e-18, y: 4.1853627e-18, z: -0.00022245385, w: 1}
        inSlope: {x: 8.571071e-17, y: 8.396657e-17, z: -0.9781842, w: 0.039716702}
        outSlope: {x: 8.571071e-17, y: 8.396657e-17, z: -0.9781842, w: 0.039716702}
        tangentMode: 0
      - serializedVersion: 2
        time: 0.75000006
        value: {x: 4.5404486e-18, y: 4.1853614e-18, z: -0.00022243438, w: 1}
        inSlope: {x: -1.9852325e-23, y: -1.4889245e-23, z: 0.00000023364544, w: 0}
        outSlope: {x: -1.9852325e-23, y: -1.4889245e-23, z: 0.00000023364544, w: 0}
        tangentMode: 0
      - serializedVersion: 2
        time: 1.125
        value: {x: 4.540467e-18, y: 4.185377e-18, z: -0.00022263051, w: 1}
        inSlope: {x: -6.108411e-24, y: -6.108411e-24, z: 0.000000058834516, w: 0}
        outSlope: {x: -6.108411e-24, y: -6.108411e-24, z: 0.000000058834516, w: 0}
        tangentMode: 0
      m_PreInfinity: 2
      m_PostInfinity: 2
      m_RotationOrder: 4
    path: Root/Ball/Wrist/Hand 1/Tumb_Base/Tumb_Middle
  - curve:
      serializedVersion: 2
      m_Curve:
      - serializedVersion: 2
        time: 0
        value: {x: -0.35240194, y: 0.9358487, z: -7.88826e-17, w: -3.572581e-17}
        inSlope: {x: 0, y: 0, z: 0, w: 0}
        outSlope: {x: 0, y: 0, z: 0, w: 0}
        tangentMode: 0
      - serializedVersion: 2
        time: 1.125
        value: {x: -0.35240197, y: 0.9358487, z: -7.8882603e-17, w: -3.572581e-17}
        inSlope: {x: 0, y: 0, z: 0, w: 0}
        outSlope: {x: 0, y: 0, z: 0, w: 0}
        tangentMode: 0
      m_PreInfinity: 2
      m_PostInfinity: 2
      m_RotationOrder: 4
    path: Root/Ball/Wrist/Hand 1/Tumb_Base/Tumb_Middle/Tumb_End
  - curve:
      serializedVersion: 2
      m_Curve:
      - serializedVersion: 2
        time: 0
        value: {x: -0.6770857, y: -0.08445887, z: 0.5204486, w: 0.51337594}
        inSlope: {x: -2.0309157, y: 2.0917628, z: 1.382292, w: -2.2356098}
        outSlope: {x: -2.0309157, y: 2.0917628, z: 1.382292, w: -2.2356098}
        tangentMode: 0
      - serializedVersion: 2
        time: 0.041666664
        value: {x: -0.7104449, y: -0.12579128, z: 0.45506337, w: 0.521883}
        inSlope: {x: -0.62181544, y: -0.7917296, z: -1.2423685, w: 0.10077382}
        outSlope: {x: -0.62181544, y: -0.7917296, z: -1.2423685, w: 0.10077382}
        tangentMode: 0
      - serializedVersion: 2
        time: 0.125
        value: {x: -0.7328742, y: -0.15669417, z: 0.40781647, w: 0.5215631}
        inSlope: {x: -0.0037793927, y: -0.035217207, z: -0.034953803, w: 0.0122859515}
        outSlope: {x: -0.0037793927, y: -0.035217207, z: -0.034953803, w: 0.0122859515}
        tangentMode: 0
      - serializedVersion: 2
        time: 0.29166666
        value: {x: -0.71518207, y: -0.11098944, z: 0.46375957, w: 0.511002}
        inSlope: {x: 0.11186741, y: 0.41396868, z: 0.45582205, w: -0.16586922}
        outSlope: {x: 0.11186741, y: 0.41396868, z: 0.45582205, w: -0.16586922}
        tangentMode: 0
      - serializedVersion: 2
        time: 0.5833334
        value: {x: -0.66904444, y: -0.06197832, z: 0.54662526, w: 0.49973902}
        inSlope: {x: 0.20980658, y: 0.11177345, z: 0.28021348, w: -0.011863226}
        outSlope: {x: 0.20980658, y: 0.11177345, z: 0.28021348, w: -0.011863226}
        tangentMode: 0
      - serializedVersion: 2
        time: 0.7916667
        value: {x: -0.63929504, y: -0.048473656, z: 0.5840927, w: 0.49778298}
        inSlope: {x: -0.011092168, y: -0.033986762, z: -0.03829692, w: 0.027200464}
        outSlope: {x: -0.011092168, y: -0.033986762, z: -0.03829692, w: 0.027200464}
        tangentMode: 0
      - serializedVersion: 2
        time: 1.0833334
        value: {x: -0.6550915, y: -0.065243274, z: 0.55612683, w: 0.5072685}
        inSlope: {x: -0.013855905, y: 0.0036940514, z: -0.008798316, w: -0.007744799}
        outSlope: {x: -0.013855905, y: 0.0036940514, z: -0.008798316, w: -0.007744799}
        tangentMode: 0
      - serializedVersion: 2
        time: 1.125
        value: {x: -0.65503293, y: -0.064353496, z: 0.5569423, w: 0.5065629}
        inSlope: {x: -0.26393032, y: -0.2305874, z: -0.4281389, w: 0.07328946}
        outSlope: {x: -0.26393032, y: -0.2305874, z: -0.4281389, w: 0.07328946}
        tangentMode: 0
      m_PreInfinity: 2
      m_PostInfinity: 2
      m_RotationOrder: 4
    path: Root/Ball/Wrist/Hand 1/Finger_Base
  - curve:
      serializedVersion: 2
      m_Curve:
      - serializedVersion: 2
        time: 0
        value: {x: -6.078575e-17, y: -1.05881024e-16, z: 0.87006795, w: 0.49293178}
        inSlope: {x: -3.6686177e-16, y: -1.4391527e-15, z: 8.079547, w: -6.983679}
        outSlope: {x: -3.6686177e-16, y: -1.4391527e-15, z: 8.079547, w: -6.983679}
        tangentMode: 0
      - serializedVersion: 2
        time: 0.041666664
        value: {x: -5.3522113e-17, y: -1.2569012e-16, z: 0.9222744, w: 0.38653573}
        inSlope: {x: 1.3148999e-16, y: -3.251471e-16, z: 0.8199978, w: -1.7686062}
        outSlope: {x: 1.3148999e-16, y: -3.251471e-16, z: 0.8199978, w: -1.7686062}
        tangentMode: 0
      - serializedVersion: 2
        time: 0.083333336
        value: {x: -4.9828252e-17, y: -1.3297662e-16, z: 0.9384011, w: 0.34554794}
        inSlope: {x: 5.431197e-17, y: -1.0541064e-16, z: 0.23085448, w: -0.5946836}
        outSlope: {x: 5.431197e-17, y: -1.0541064e-16, z: 0.23085448, w: -0.5946836}
        tangentMode: 0
      - serializedVersion: 2
        time: 0.20833334
        value: {x: -5.446113e-17, y: -1.2363417e-16, z: 0.9174275, w: 0.39790303}
        inSlope: {x: -9.703506e-17, y: 2.2465916e-16, z: -0.5469682, w: 1.2324665}
        outSlope: {x: -9.703506e-17, y: 2.2465916e-16, z: -0.5469682, w: 1.2324665}
        tangentMode: 0
      - serializedVersion: 2
        time: 0.29166666
        value: {x: -6.18962e-17, y: -1.0139151e-16, z: 0.8564811, w: 0.51617837}
        inSlope: {x: -5.915718e-17, y: 2.5144742e-16, z: -0.77277863, w: 1.2983189}
        outSlope: {x: -5.915718e-17, y: 2.5144742e-16, z: -0.77277863, w: 1.2983189}
        tangentMode: 0
      - serializedVersion: 2
        time: 0.375
        value: {x: -6.414954e-17, y: -8.707363e-17, z: 0.8084663, w: 0.58854246}
        inSlope: {x: -7.771635e-18, y: 7.3773195e-17, z: -0.2619725, w: 0.36795554}
        outSlope: {x: -7.771635e-18, y: 7.3773195e-17, z: -0.2619725, w: 0.36795554}
        tangentMode: 0
      - serializedVersion: 2
        time: 0.50000006
        value: {x: -6.440251e-17, y: -8.3537255e-17, z: 0.7954339, w: 0.6060404}
        inSlope: {x: -1.4340535e-18, y: 2.6622464e-17, z: -0.10002068, w: 0.1312001}
        outSlope: {x: -1.4340535e-18, y: 2.6622464e-17, z: -0.10002068, w: 0.1312001}
        tangentMode: 0
      - serializedVersion: 2
        time: 0.7083334
        value: {x: -6.452728e-17, y: -7.582876e-17, z: 0.7652583, w: 0.6437233}
        inSlope: {x: 4.098314e-19, y: 2.5335536e-17, z: -0.10267134, w: 0.12302321}
        outSlope: {x: 4.098314e-19, y: 2.5335536e-17, z: -0.10267134, w: 0.12302321}
        tangentMode: 0
      - serializedVersion: 2
        time: 1
        value: {x: -6.385427e-17, y: -8.995195e-17, z: 0.8187175, w: 0.5741965}
        inSlope: {x: 5.6526003e-18, y: -5.0427756e-17, z: 0.17772764, w: -0.25192046}
        outSlope: {x: 5.6526003e-18, y: -5.0427756e-17, z: 0.17772764, w: -0.25192046}
        tangentMode: 0
      - serializedVersion: 2
        time: 1.0833334
        value: {x: -6.3540494e-17, y: -9.239979e-17, z: 0.8271918, w: 0.5619197}
        inSlope: {x: 6.059695e-19, y: -4.51948e-18, z: 0.015543858, w: -0.022699954}
        outSlope: {x: 6.059695e-19, y: -4.51948e-18, z: 0.015543858, w: -0.022699954}
        tangentMode: 0
      - serializedVersion: 2
        time: 1.125
        value: {x: -6.359849e-17, y: -9.197921e-17, z: 0.8257515, w: 0.56403416}
        inSlope: {x: 3.305695e-17, y: -1.6177501e-16, z: 0.514514, w: -0.8278557}
        outSlope: {x: 3.305695e-17, y: -1.6177501e-16, z: 0.514514, w: -0.8278557}
        tangentMode: 0
      m_PreInfinity: 2
      m_PostInfinity: 2
      m_RotationOrder: 4
    path: Root/Ball/Wrist/Hand 1/Finger_Base/Finger_Middle
  - curve:
      serializedVersion: 2
      m_Curve:
      - serializedVersion: 2
        time: 0
        value: {x: 0, y: 0, z: -0.46309823, w: 0.88630694}
        inSlope: {x: 0, y: 0, z: 0, w: 0}
        outSlope: {x: 0, y: 0, z: 0, w: 0}
        tangentMode: 0
      - serializedVersion: 2
        time: 1.125
        value: {x: 0, y: 0, z: -0.46309826, w: 0.88630694}
        inSlope: {x: 0, y: 0, z: 0, w: 0}
        outSlope: {x: 0, y: 0, z: 0, w: 0}
        tangentMode: 0
      m_PreInfinity: 2
      m_PostInfinity: 2
      m_RotationOrder: 4
    path: Root/Ball/Wrist/Hand 1/Finger_Base/Finger_Middle/Finger_End
  - curve:
      serializedVersion: 2
      m_Curve:
      - serializedVersion: 2
        time: 0
        value: {x: 0.7017089, y: -0.051383615, z: -0.6163491, w: -0.35366383}
        inSlope: {x: 1.272402, y: -4.1984158, z: -2.2670166, w: 2.7995448}
        outSlope: {x: 1.272402, y: -4.1984158, z: -2.2670166, w: 2.7995448}
        tangentMode: 0
      - serializedVersion: 2
        time: 0.041666664
        value: {x: 0.7559381, y: -0.047266997, z: -0.5377475, w: -0.37033913}
        inSlope: {x: 1.0177824, y: 0.08655596, z: 1.5313193, w: -0.2550391}
        outSlope: {x: 1.0177824, y: 0.08655596, z: 1.5313193, w: -0.2550391}
        tangentMode: 0
      - serializedVersion: 2
        time: 0.125
        value: {x: 0.7933781, y: -0.042887095, z: -0.47701573, w: -0.37572327}
        inSlope: {x: 0.0022709072, y: 0.06075356, z: 0.027542666, w: -0.037647493}
        outSlope: {x: 0.0022709072, y: 0.06075356, z: 0.027542666, w: -0.037647493}
        tangentMode: 0
      - serializedVersion: 2
        time: 0.29166666
        value: {x: 0.7495981, y: -0.042336654, z: -0.5452182, w: -0.37289074}
        inSlope: {x: -0.27648923, y: -0.20486239, z: -0.49443907, w: 0.18951735}
        outSlope: {x: -0.27648923, y: -0.20486239, z: -0.49443907, w: 0.18951735}
        tangentMode: 0
      - serializedVersion: 2
        time: 0.50000006
        value: {x: 0.70605046, y: -0.060946852, z: -0.61423403, w: -0.34712356}
        inSlope: {x: -0.22854, y: -0.0055309366, z: -0.31133085, w: 0.087658554}
        outSlope: {x: -0.22854, y: -0.0055309366, z: -0.31133085, w: 0.087658554}
        tangentMode: 0
      - serializedVersion: 2
        time: 0.7916667
        value: {x: 0.6492341, y: -0.05723001, z: -0.6855156, w: -0.3244813}
        inSlope: {x: 0.017411448, y: 0.028757941, z: 0.032420374, w: -0.038433194}
        outSlope: {x: 0.017411448, y: 0.028757941, z: 0.032420374, w: -0.038433194}
        tangentMode: 0
      - serializedVersion: 2
        time: 1.0416666
        value: {x: 0.6690968, y: -0.051415734, z: -0.65867156, w: -0.34031993}
        inSlope: {x: 0.03153775, y: 0.007713918, z: 0.04281447, w: -0.022058852}
        outSlope: {x: 0.03153775, y: 0.007713918, z: 0.04281447, w: -0.022058852}
        tangentMode: 0
      - serializedVersion: 2
        time: 1.0833334
        value: {x: 0.6706064, y: -0.051752336, z: -0.65691024, w: -0.34070203}
        inSlope: {x: 0.014174899, y: -0.012502715, z: 0.012703608, w: 0.005234975}
        outSlope: {x: 0.014174899, y: -0.012502715, z: 0.012703608, w: 0.005234975}
        tangentMode: 0
      - serializedVersion: 2
        time: 1.125
        value: {x: 0.6702781, y: -0.052457627, z: -0.6576129, w: -0.3398837}
        inSlope: {x: 0.37323081, y: 0.004424665, z: 0.48673415, w: -0.1555418}
        outSlope: {x: 0.37323081, y: 0.004424665, z: 0.48673415, w: -0.1555418}
        tangentMode: 0
      m_PreInfinity: 2
      m_PostInfinity: 2
      m_RotationOrder: 4
    path: Root/Ball/Wrist/Hand 1/Middle_Finger_Base
  - curve:
      serializedVersion: 2
      m_Curve:
      - serializedVersion: 2
        time: 0
        value: {x: -6.715952e-17, y: -8.518533e-17, z: 0.7823353, w: 0.62285763}
        inSlope: {x: -6.500453e-16, y: -1.2870061e-15, z: 9.268383, w: -5.836075}
        outSlope: {x: -6.500453e-16, y: -1.2870061e-15, z: 9.268383, w: -5.836075}
        tangentMode: 0
      - serializedVersion: 2
        time: 0.041666664
        value: {x: -6.336611e-17, y: -1.0810648e-16, z: 0.86030096, w: 0.5097866}
        inSlope: {x: 7.990144e-17, y: -3.837035e-16, z: 1.247906, w: -1.917582}
        outSlope: {x: 7.990144e-17, y: -3.837035e-16, z: 1.247906, w: -1.917582}
        tangentMode: 0
      - serializedVersion: 2
        time: 0.083333336
        value: {x: -6.050107e-17, y: -1.1716062e-16, z: 0.88632745, w: 0.46305913}
        inSlope: {x: 4.2983637e-17, y: -1.319263e-16, z: 0.37529108, w: -0.6829676}
        outSlope: {x: 4.2983637e-17, y: -1.319263e-16, z: 0.37529108, w: -0.6829676}
        tangentMode: 0
      - serializedVersion: 2
        time: 0.16666666
        value: {x: -6.092223e-17, y: -1.1597191e-16, z: 0.88305485, w: 0.46926975}
        inSlope: {x: -4.550948e-17, y: 1.4129863e-16, z: -0.4036759, w: 0.7306164}
        outSlope: {x: -4.550948e-17, y: 1.4129863e-16, z: -0.4036759, w: 0.7306164}
        tangentMode: 0
      - serializedVersion: 2
        time: 0.25
        value: {x: -6.609778e-17, y: -9.527526e-17, z: 0.81890845, w: 0.5739241}
        inSlope: {x: -4.449624e-17, y: 3.001905e-16, z: -1.0407517, w: 1.4739364}
        outSlope: {x: -4.449624e-17, y: 3.001905e-16, z: -1.0407517, w: 1.4739364}
        tangentMode: 0
      - serializedVersion: 2
        time: 0.33333334
        value: {x: -6.701868e-17, y: -7.138819e-17, z: 0.72579616, w: 0.68790984}
        inSlope: {x: 1.0541272e-17, y: 1.9842626e-16, z: -0.85060483, w: 0.92689466}
        outSlope: {x: 1.0541272e-17, y: 1.9842626e-16, z: -0.85060483, w: 0.92689466}
        tangentMode: 0
      - serializedVersion: 2
        time: 0.45833334
        value: {x: -6.5916475e-17, y: -6.264327e-17, z: 0.6854171, w: 0.7281507}
        inSlope: {x: 5.8531006e-18, y: 3.3737597e-17, z: -0.16341226, w: 0.1538872}
        outSlope: {x: 5.8531006e-18, y: 3.3737597e-17, z: -0.16341226, w: 0.1538872}
        tangentMode: 0
      - serializedVersion: 2
        time: 0.6666667
        value: {x: -6.400657e-17, y: -5.4106536e-17, z: 0.641927, w: 0.76676583}
        inSlope: {x: 1.30436225e-17, y: 4.760226e-17, z: -0.2547627, w: 0.21364123}
        outSlope: {x: 1.30436225e-17, y: 4.760226e-17, z: -0.2547627, w: 0.21364123}
        tangentMode: 0
      - serializedVersion: 2
        time: 0.7916667
        value: {x: -6.373194e-17, y: -5.313172e-17, z: 0.63667077, w: 0.7711358}
        inSlope: {x: -1.20037555e-17, y: -4.2491064e-17, z: 0.22929668, w: -0.19046402}
        outSlope: {x: -1.20037555e-17, y: -4.2491064e-17, z: 0.22929668, w: -0.19046402}
        tangentMode: 0
      - serializedVersion: 2
        time: 1.0833334
        value: {x: -6.693486e-17, y: -7.039831e-17, z: 0.7214164, w: 0.6925016}
        inSlope: {x: -4.5525136e-19, y: -4.7033105e-18, z: 0.021070605, w: -0.021763688}
        outSlope: {x: -4.5525136e-19, y: -4.7033105e-18, z: 0.021070605, w: -0.021763688}
        tangentMode: 0
      - serializedVersion: 2
        time: 1.125
        value: {x: -6.689176e-17, y: -6.993128e-17, z: 0.71933377, w: 0.6946646}
        inSlope: {x: -2.6959495e-18, y: -1.7744439e-16, z: 0.7310271, w: -0.8357285}
        outSlope: {x: -2.6959495e-18, y: -1.7744439e-16, z: 0.7310271, w: -0.8357285}
        tangentMode: 0
      m_PreInfinity: 2
      m_PostInfinity: 2
      m_RotationOrder: 4
    path: Root/Ball/Wrist/Hand 1/Middle_Finger_Base/Middle_Finger_M
  - curve:
      serializedVersion: 2
      m_Curve:
      - serializedVersion: 2
        time: 0
        value: {x: 0, y: 0, z: -0.45845464, w: 0.88871783}
        inSlope: {x: 0, y: 0, z: 0, w: 0}
        outSlope: {x: 0, y: 0, z: 0, w: 0}
        tangentMode: 0
      - serializedVersion: 2
        time: 1.125
        value: {x: 0, y: 0, z: -0.4584546, w: 0.88871783}
        inSlope: {x: 0, y: 0, z: 0, w: 0}
        outSlope: {x: 0, y: 0, z: 0, w: 0}
        tangentMode: 0
      m_PreInfinity: 2
      m_PostInfinity: 2
      m_RotationOrder: 4
    path: Root/Ball/Wrist/Hand 1/Middle_Finger_Base/Middle_Finger_M/Middle_Finger_End
  - curve:
      serializedVersion: 2
      m_Curve:
      - serializedVersion: 2
        time: 0
        value: {x: 0.6687056, y: 0.30542588, z: 0.3104285, w: 0.6026459}
        inSlope: {x: 0.53260946, y: -1.3094482, z: 0.1809726, w: -0.13399388}
        outSlope: {x: 0.53260946, y: -1.3094482, z: 0.1809726, w: -0.13399388}
        tangentMode: 0
      - serializedVersion: 2
        time: 0.041666664
        value: {x: 0.70603085, y: 0.20948042, z: 0.3418361, w: 0.5837692}
        inSlope: {x: 0.5928304, y: -1.6728137, z: 0.4837557, w: -0.29935384}
        outSlope: {x: 0.5928304, y: -1.6728137, z: 0.4837557, w: -0.29935384}
        tangentMode: 0
      - serializedVersion: 2
        time: 0.125
        value: {x: 0.7204218, y: 0.15631862, z: 0.3521687, w: 0.5766577}
        inSlope: {x: 0.020266766, y: -0.08643613, z: 0.035712004, w: -0.022732258}
        outSlope: {x: 0.020266766, y: -0.08643613, z: 0.035712004, w: -0.022732258}
        tangentMode: 0
      - serializedVersion: 2
        time: 0.375
        value: {x: 0.7072946, y: 0.20472032, z: 0.3510219, w: 0.57845277}
        inSlope: {x: -0.076101795, y: 0.24318379, z: 0.02127636, w: -0.006118299}
        outSlope: {x: -0.076101795, y: 0.24318379, z: 0.02127636, w: -0.006118299}
        tangentMode: 0
      - serializedVersion: 2
        time: 0.6666667
        value: {x: 0.6453121, y: 0.34973162, z: 0.31063515, w: 0.60395855}
        inSlope: {x: -0.4151252, y: 0.74561316, z: -0.43987876, w: 0.23328856}
        outSlope: {x: -0.4151252, y: 0.74561316, z: -0.43987876, w: 0.23328856}
        tangentMode: 0
      - serializedVersion: 2
        time: 0.75000006
        value: {x: 0.6055107, y: 0.4140758, z: 0.26178706, w: 0.6271886}
        inSlope: {x: -0.59926724, y: 0.86066175, z: -0.8554373, w: 0.34675896}
        outSlope: {x: -0.59926724, y: 0.86066175, z: -0.8554373, w: 0.34675896}
        tangentMode: 0
      - serializedVersion: 2
        time: 0.7916667
        value: {x: 0.5765647, y: 0.45356637, z: 0.21824673, w: 0.6435985}
        inSlope: {x: -0.51347446, y: 0.68104506, z: -0.8101678, w: 0.2868556}
        outSlope: {x: -0.51347446, y: 0.68104506, z: -0.8101678, w: 0.2868556}
        tangentMode: 0
      - serializedVersion: 2
        time: 0.9166667
        value: {x: 0.56648254, y: 0.46687177, z: 0.18598677, w: 0.65309817}
        inSlope: {x: 0.02756525, y: -0.02704991, z: -0.112290084, w: 0.02742289}
        outSlope: {x: 0.02756525, y: -0.02704991, z: -0.112290084, w: 0.02742289}
        tangentMode: 0
      - serializedVersion: 2
        time: 0.95833343
        value: {x: 0.5669897, y: 0.46648875, z: 0.18109295, w: 0.65430593}
        inSlope: {x: 0.1814734, y: -0.22364457, z: 0.1630983, w: -0.051134437}
        outSlope: {x: 0.1814734, y: -0.22364457, z: 0.1630983, w: -0.051134437}
        tangentMode: 0
      - serializedVersion: 2
        time: 1
        value: {x: 0.5816053, y: 0.44823474, z: 0.19957827, w: 0.648837}
        inSlope: {x: 0.5029919, y: -0.67335135, z: 0.7129649, w: -0.23396967}
        outSlope: {x: 0.5029919, y: -0.67335135, z: 0.7129649, w: -0.23396967}
        tangentMode: 0
      - serializedVersion: 2
        time: 1.0416666
        value: {x: 0.6089057, y: 0.4103762, z: 0.24050663, w: 0.6348085}
        inSlope: {x: 0.5061106, y: -0.7303679, z: 0.7778554, w: -0.28307956}
        outSlope: {x: 0.5061106, y: -0.7303679, z: 0.7778554, w: -0.28307956}
        tangentMode: 0
      - serializedVersion: 2
        time: 1.0833334
        value: {x: 0.6237812, y: 0.38737074, z: 0.26439956, w: 0.625247}
        inSlope: {x: 0.27319884, y: -0.43468842, z: 0.48915607, w: -0.20205389}
        outSlope: {x: 0.27319884, y: -0.43468842, z: 0.48915607, w: -0.20205389}
        tangentMode: 0
      - serializedVersion: 2
        time: 1.125
        value: {x: 0.63167226, y: 0.37415212, z: 0.28126967, w: 0.61797065}
        inSlope: {x: 0.539093, y: -0.9833392, z: 0.55234784, w: -0.2712138}
        outSlope: {x: 0.539093, y: -0.9833392, z: 0.55234784, w: -0.2712138}
        tangentMode: 0
      m_PreInfinity: 2
      m_PostInfinity: 2
      m_RotationOrder: 4
    path: Root/Ball/Wrist/Hand 1/Small_Finger_Base
  - curve:
      serializedVersion: 2
      m_Curve:
      - serializedVersion: 2
        time: 0
        value: {x: 6.489749e-17, y: -4.992914e-17, z: -0.6348084, w: 0.77266955}
        inSlope: {x: 7.018168e-16, y: -7.994099e-16, z: -7.407327, w: -3.626803}
        outSlope: {x: 7.018168e-16, y: -7.994099e-16, z: -7.407327, w: -3.626803}
        tangentMode: 0
      - serializedVersion: 2
        time: 0.041666664
        value: {x: 6.891168e-17, y: -6.737504e-17, z: -0.7216003, w: 0.6923099}
        inSlope: {x: 5.3377293e-17, y: -2.5672814e-16, z: -1.2491521, w: -1.1863117}
        outSlope: {x: 5.3377293e-17, y: -2.5672814e-16, z: -1.2491521, w: -1.1863117}
        tangentMode: 0
      - serializedVersion: 2
        time: 0.083333336
        value: {x: 6.9345595e-17, y: -7.132315e-17, z: -0.7389044, w: 0.67381024}
        inSlope: {x: 5.4646322e-18, y: -5.030049e-17, z: -0.22016641, w: -0.23574254}
        outSlope: {x: 5.4646322e-18, y: -5.030049e-17, z: -0.22016641, w: -0.23574254}
        tangentMode: 0
      - serializedVersion: 2
        time: 0.25
        value: {x: 6.7727563e-17, y: -6.036452e-17, z: -0.6888971, w: 0.7248592}
        inSlope: {x: -2.6896903e-17, y: 1.2913176e-16, z: 0.6276964, w: 0.59630525}
        outSlope: {x: -2.6896903e-17, y: 1.2913176e-16, z: 0.6276964, w: 0.59630525}
        tangentMode: 0
      - serializedVersion: 2
        time: 0.33333334
        value: {x: 6.529431e-17, y: -5.113298e-17, z: -0.64142007, w: 0.76718986}
        inSlope: {x: -1.8305198e-17, y: 6.026873e-17, z: 0.322636, w: 0.27508298}
        outSlope: {x: -1.8305198e-17, y: 6.026873e-17, z: 0.322636, w: 0.27508298}
        tangentMode: 0
      - serializedVersion: 2
        time: 0.45833334
        value: {x: 6.411632e-17, y: -4.7715252e-17, z: -0.6223686, w: 0.7827243}
        inSlope: {x: -2.5442818e-17, y: 6.705619e-17, z: 0.38671428, w: 0.30383405}
        outSlope: {x: -2.5442818e-17, y: 6.705619e-17, z: 0.38671428, w: 0.30383405}
        tangentMode: 0
      - serializedVersion: 2
        time: 0.62500006
        value: {x: 5.2535693e-17, y: -2.6539556e-17, z: -0.47921845, w: 0.8776957}
        inSlope: {x: -1.3358779e-16, y: 1.6988753e-16, z: 1.406303, w: 0.75588036}
        outSlope: {x: -1.3358779e-16, y: 1.6988753e-16, z: 1.406303, w: 0.75588036}
        tangentMode: 0
      - serializedVersion: 2
        time: 0.7083334
        value: {x: 3.7231866e-17, y: -1.17619855e-17, z: -0.33157977, w: 0.9434272}
        inSlope: {x: -2.4693636e-16, y: 1.6838699e-16, z: 2.212537, w: 0.7554971}
        outSlope: {x: -2.4693636e-16, y: 1.6838699e-16, z: 2.212537, w: 0.7554971}
        tangentMode: 0
      - serializedVersion: 2
        time: 0.75000006
        value: {x: 2.5487465e-17, y: -5.1530556e-18, z: -0.22941667, w: 0.9733283}
        inSlope: {x: -3.6310608e-16, y: 1.3744683e-16, z: 3.0661492, w: 0.6441058}
        outSlope: {x: -3.6310608e-16, y: 1.3744683e-16, z: 3.0661492, w: 0.6441058}
        tangentMode: 0
      - serializedVersion: 2
        time: 0.7916667
        value: {x: 6.973038e-18, y: -3.0808438e-19, z: -0.07606745, w: 0.9971027}
        inSlope: {x: -3.3396497e-16, y: 6.098127e-17, z: 2.7529418, w: 0.32006073}
        outSlope: {x: -3.3396497e-16, y: 6.098127e-17, z: 2.7529418, w: 0.32006073}
        tangentMode: 0
      - serializedVersion: 2
        time: 0.8333334
        value: {x: -2.3429376e-18, y: -7.128791e-20, z: -0.0000049519363, w: 1}
        inSlope: {x: -1.1179163e-16, y: 2.8415575e-18, z: 0.91274923, w: 0.03476785}
        outSlope: {x: -1.1179163e-16, y: 2.8415575e-18, z: 0.91274923, w: 0.03476785}
        tangentMode: 0
      - serializedVersion: 2
        time: 0.87500006
        value: {x: -2.3429355e-18, y: -7.128781e-20, z: -0.000004970076, w: 1}
        inSlope: {x: 2.4815407e-23, y: 1.2407703e-24, z: -0.00000021767836, w: 0}
        outSlope: {x: 2.4815407e-23, y: 1.2407703e-24, z: -0.00000021767836, w: 0}
        tangentMode: 0
      - serializedVersion: 2
        time: 0.9166667
        value: {x: -2.3429355e-18, y: -7.128781e-20, z: -0.000004970076, w: 1}
        inSlope: {x: 1.1663224e-22, y: 5.9711986e-24, z: -0.000000971284, w: 0}
        outSlope: {x: 1.1663224e-22, y: 5.9711986e-24, z: -0.000000971284, w: 0}
        tangentMode: 0
      - serializedVersion: 2
        time: 0.95833343
        value: {x: -2.3429258e-18, y: -7.128731e-20, z: -0.0000050510166, w: 1}
        inSlope: {x: 1.2459615e-16, y: -4.253433e-18, z: -1.017403, w: -0.043212216}
        outSlope: {x: 1.2459615e-16, y: -4.253433e-18, z: -1.017403, w: -0.043212216}
        tangentMode: 0
      - serializedVersion: 2
        time: 1
        value: {x: 8.040067e-18, y: -4.257402e-19, z: -0.08478848, w: 0.996399}
        inSlope: {x: 3.7281258e-16, y: -7.910544e-17, z: -3.0840974, w: -0.40310493}
        outSlope: {x: 3.7281258e-16, y: -7.910544e-17, z: -3.0840974, w: -0.40310493}
        tangentMode: 0
      - serializedVersion: 2
        time: 1.0416666
        value: {x: 2.872476e-17, y: -6.663401e-18, z: -0.2570129, w: 0.96640795}
        inSlope: {x: 4.1398566e-16, y: -1.8588649e-16, z: -3.545025, w: -0.85797155}
        outSlope: {x: 4.1398566e-16, y: -1.8588649e-16, z: -3.545025, w: -0.85797155}
        tangentMode: 0
      - serializedVersion: 2
        time: 1.0833334
        value: {x: 4.2538878e-17, y: -1.5916293e-17, z: -0.3802073, w: 0.9249013}
        inSlope: {x: 2.964256e-16, y: -2.5272461e-16, z: -2.7807653, w: -1.1277648}
        outSlope: {x: 2.964256e-16, y: -2.5272461e-16, z: -2.7807653, w: -1.1277648}
        tangentMode: 0
      - serializedVersion: 2
        time: 1.125
        value: {x: 5.342691e-17, y: -2.7723794e-17, z: -0.48874348, w: 0.8724275}
        inSlope: {x: 2.6830356e-16, y: -4.0815455e-16, z: -3.0552163, w: -1.8267828}
        outSlope: {x: 2.6830356e-16, y: -4.0815455e-16, z: -3.0552163, w: -1.8267828}
        tangentMode: 0
      m_PreInfinity: 2
      m_PostInfinity: 2
      m_RotationOrder: 4
    path: Root/Ball/Wrist/Hand 1/Small_Finger_Base/Small_Finger_Middle
  - curve:
      serializedVersion: 2
      m_Curve:
      - serializedVersion: 2
        time: 0
        value: {x: 0, y: 0, z: -0.44631675, w: 0.894875}
        inSlope: {x: 0, y: 0, z: 0, w: 0}
        outSlope: {x: 0, y: 0, z: 0, w: 0}
        tangentMode: 0
      - serializedVersion: 2
        time: 1.125
        value: {x: 0, y: 0, z: -0.44631678, w: 0.89487505}
        inSlope: {x: 0, y: 0, z: 0, w: 0}
        outSlope: {x: 0, y: 0, z: 0, w: 0}
        tangentMode: 0
      m_PreInfinity: 2
      m_PostInfinity: 2
      m_RotationOrder: 4
    path: Root/Ball/Wrist/Hand 1/Small_Finger_Base/Small_Finger_Middle/Small_Finger_End
  - curve:
      serializedVersion: 2
      m_Curve:
      - serializedVersion: 2
        time: 0
        value: {x: 0.0015034024, y: 0.0018544884, z: 0.00012141136, w: 0.99999654}
        inSlope: {x: 0.036081266, y: 0.044507235, z: 0.0029138408, w: -0.00017809868}
        outSlope: {x: 0.036081266, y: 0.044507235, z: 0.0029138408, w: -0.00017809868}
        tangentMode: 0
      - serializedVersion: 2
        time: 0.083333336
        value: {x: 0.006013479, y: 0.0074177934, z: 0.00048563487, w: 0.9999543}
        inSlope: {x: 0.072160184, y: 0.089011595, z: 0.0058274916, w: -0.0009319781}
        outSlope: {x: 0.072160184, y: 0.089011595, z: 0.0058274916, w: -0.0009319781}
        tangentMode: 0
      - serializedVersion: 2
        time: 0.41666666
        value: {x: -1.3877788e-17, y: -2.0122792e-16, z: -1.7385182e-16, w: 1}
        inSlope: {x: -4.9960015e-16, y: 3.330669e-16, z: 1.3010426e-17, w: 0}
        outSlope: {x: -4.9960015e-16, y: 3.330669e-16, z: 1.3010426e-17, w: 0}
        tangentMode: 0
      - serializedVersion: 2
        time: 1.125
        value: {x: -1.6951422e-16, y: -3.0544272e-14, z: 3.9073505e-13, w: 1}
        inSlope: {x: 7.395964e-16, y: 9.681834e-14, z: -1.2406042e-12, w: 0}
        outSlope: {x: 7.395964e-16, y: 9.681834e-14, z: -1.2406042e-12, w: 0}
        tangentMode: 0
      m_PreInfinity: 2
      m_PostInfinity: 2
      m_RotationOrder: 4
    path: Root/Ball/Wrist/Hand 1/Weapon
  m_CompressedRotationCurves: []
  m_EulerCurves: []
  m_PositionCurves:
  - curve:
      serializedVersion: 2
      m_Curve:
      - serializedVersion: 2
        time: 0
        value: {x: -1.2786983, y: -0.002315473, z: 0.02121284}
        inSlope: {x: 0, y: 0, z: 0}
        outSlope: {x: 0, y: 0, z: 0}
        tangentMode: 0
      - serializedVersion: 2
        time: 1.125
        value: {x: -1.2786984, y: -0.0023154733, z: 0.02121284}
        inSlope: {x: 0, y: 0, z: 0}
        outSlope: {x: 0, y: 0, z: 0}
        tangentMode: 0
      m_PreInfinity: 2
      m_PostInfinity: 2
      m_RotationOrder: 4
    path: Root
  - curve:
      serializedVersion: 2
      m_Curve:
      - serializedVersion: 2
        time: 0
        value: {x: -0.51823413, y: 0.0071266233, z: -6.0877773e-17}
        inSlope: {x: 0, y: 0, z: 0}
        outSlope: {x: 0, y: 0, z: 0}
        tangentMode: 0
      - serializedVersion: 2
        time: 1.125
        value: {x: -0.51823413, y: 0.0071266233, z: -6.0877773e-17}
        inSlope: {x: 0, y: 0, z: 0}
        outSlope: {x: 0, y: 0, z: 0}
        tangentMode: 0
      m_PreInfinity: 2
      m_PostInfinity: 2
      m_RotationOrder: 4
    path: Root/Ball
  - curve:
      serializedVersion: 2
      m_Curve:
      - serializedVersion: 2
        time: 0
        value: {x: -0.45695588, y: 0.0000004577993, z: -0.0000013496601}
        inSlope: {x: 0, y: 0, z: 0}
        outSlope: {x: 0, y: 0, z: 0}
        tangentMode: 0
      - serializedVersion: 2
        time: 1.125
        value: {x: -0.4569559, y: 0.0000004577993, z: -0.0000013496601}
        inSlope: {x: 0, y: 0, z: 0}
        outSlope: {x: 0, y: 0, z: 0}
        tangentMode: 0
      m_PreInfinity: 2
      m_PostInfinity: 2
      m_RotationOrder: 4
    path: Root/Ball/Wrist
  - curve:
      serializedVersion: 2
      m_Curve:
      - serializedVersion: 2
        time: 0
        value: {x: -0.0583843, y: 0.00008310849, z: -0.000050856343}
        inSlope: {x: -0.00002425909, y: 0.000000114610884, z: -0.0000042492175}
        outSlope: {x: -0.00002425909, y: 0.000000114610884, z: -0.0000042492175}
        tangentMode: 0
      - serializedVersion: 2
        time: 0.041666664
        value: {x: -0.058384888, y: 0.00008311128, z: -0.00005095961}
        inSlope: {x: 0.0000000054502816, y: -1.1710306e-10, z: 6.287902e-10}
        outSlope: {x: 0.00000025067803, y: 4.260676e-11, z: -5.01415e-10}
        tangentMode: 0
      - serializedVersion: 2
        time: 0.29166666
        value: {x: -0.058384623, y: 0.00008310964, z: -0.000050900137}
        inSlope: {x: -0.000009384157, y: 0.00000024612464, z: -0.000008909896}
        outSlope: {x: -0.000010136196, y: 0.0000002465397, z: -0.000008910544}
        tangentMode: 0
      - serializedVersion: 2
        time: 0.3333333
        value: {x: -0.058385264, y: 0.00008312597, z: -0.00005149271}
        inSlope: {x: -0.00003847395, y: 0.0000009181565, z: -0.000033292043}
        outSlope: {x: -0.000039111514, y: 0.00000091718704, z: -0.000033291723}
        tangentMode: 0
      - serializedVersion: 2
        time: 0.375
        value: {x: -0.058387827, y: 0.0000831861, z: -0.00005367447}
        inSlope: {x: -0.0000004196067, y: -2.982538e-10, z: -4.173763e-10}
        outSlope: {x: 0.00000017437154, y: 0.0000000015330444, z: -7.578712e-10}
        tangentMode: 0
      - serializedVersion: 2
        time: 0.41666666
        value: {x: -0.058384407, y: 0.00008310381, z: -0.000050688835}
        inSlope: {x: 0.00000017437154, y: 0.0000000015330444, z: -7.578712e-10}
        outSlope: {x: 0.00000029427653, y: -2.5544847e-10, z: 9.047502e-11}
        tangentMode: 0
      - serializedVersion: 2
        time: 0.5416667
        value: {x: -0.058384668, y: 0.000083107996, z: -0.000050840437}
        inSlope: {x: -0.000017324166, y: 0.00000026297343, z: -0.000009551517}
        outSlope: {x: -0.000017580289, y: 0.00000026278175, z: -0.000009551195}
        tangentMode: 0
      - serializedVersion: 2
        time: 0.5833334
        value: {x: -0.058386248, y: 0.00008312973, z: -0.000051629046}
        inSlope: {x: -0.00000014168243, y: -1.1716594e-10, z: -8.737161e-11}
        outSlope: {x: 0.0000008501255, y: -2.3405014e-10, z: -1.4240271e-10}
        tangentMode: 0
      - serializedVersion: 2
        time: 0.625
        value: {x: -0.058384407, y: 0.00008310382, z: -0.0000506889}
        inSlope: {x: 0.0000008501255, y: -2.3405014e-10, z: -1.4240271e-10}
        outSlope: {x: 0.00000006539481, y: -2.8737965e-10, z: 6.652396e-10}
        tangentMode: 0
      - serializedVersion: 2
        time: 0.7916667
        value: {x: -0.05838684, y: 0.00008312024, z: -0.000051284474}
        inSlope: {x: -0.000044566536, y: 0.00000026259022, z: -0.00000952992}
        outSlope: {x: -0.000044245007, y: 0.00000026263277, z: -0.000009530212}
        tangentMode: 0
      - serializedVersion: 2
        time: 0.8333334
        value: {x: -0.058389053, y: 0.00008313258, z: -0.000051732295}
        inSlope: {x: -0.00000010353355, y: -2.6613717e-10, z: 1.4000567e-10}
        outSlope: {x: 0.00000083921424, y: 2.1410818e-11, z: 2.6161498e-10}
        tangentMode: 0
      - serializedVersion: 2
        time: 0.875
        value: {x: -0.058384407, y: 0.00008310382, z: -0.00005068898}
        inSlope: {x: 0.00000083921424, y: 2.1410814e-11, z: 2.6161498e-10}
        outSlope: {x: 0.00000029427653, y: 8.673613e-19, z: 1.9158689e-10}
        tangentMode: 0
      - serializedVersion: 2
        time: 1.125
        value: {x: -0.058384206, y: 0.00008310215, z: -0.000050628943}
        inSlope: {x: -0.000006003039, y: 0.0000000500669, z: -0.0000018084204}
        outSlope: {x: -0.000006003039, y: 0.0000000500669, z: -0.0000018084204}
        tangentMode: 0
      m_PreInfinity: 2
      m_PostInfinity: 2
      m_RotationOrder: 4
    path: Root/Ball/Wrist/Hand 1
  - curve:
      serializedVersion: 2
      m_Curve:
      - serializedVersion: 2
        time: 0
        value: {x: 0.012374552, y: -0.061918437, z: -0.0026832707}
        inSlope: {x: 0, y: 0, z: 0}
        outSlope: {x: 0, y: 0, z: 0}
        tangentMode: 0
      - serializedVersion: 2
        time: 1.125
        value: {x: 0.012374552, y: -0.061918434, z: -0.0026832707}
        inSlope: {x: 0, y: 0, z: 0}
        outSlope: {x: 0, y: 0, z: 0}
        tangentMode: 0
      m_PreInfinity: 2
      m_PostInfinity: 2
      m_RotationOrder: 4
    path: Root/Ball/Wrist/Hand 1/Tumb_Base
  - curve:
      serializedVersion: 2
      m_Curve:
      - serializedVersion: 2
        time: 0
        value: {x: -0.038379014, y: 2.2204458e-18, z: -3.126837e-18}
        inSlope: {x: 0, y: 0, z: 0}
        outSlope: {x: 0, y: 0, z: 0}
        tangentMode: 0
      - serializedVersion: 2
        time: 1.125
        value: {x: -0.038379014, y: 2.220446e-18, z: -3.1268372e-18}
        inSlope: {x: 0, y: 0, z: 0}
        outSlope: {x: 0, y: 0, z: 0}
        tangentMode: 0
      m_PreInfinity: 2
      m_PostInfinity: 2
      m_RotationOrder: 4
    path: Root/Ball/Wrist/Hand 1/Tumb_Base/Tumb_Middle
  - curve:
      serializedVersion: 2
      m_Curve:
      - serializedVersion: 2
        time: 0
        value: {x: -0.031019246, y: -1.7763566e-17, z: -2.7982453e-18}
        inSlope: {x: 0, y: 0, z: 0}
        outSlope: {x: 0, y: 0, z: 0}
        tangentMode: 0
      - serializedVersion: 2
        time: 1.125
        value: {x: -0.031019246, y: -1.7763568e-17, z: -2.7982453e-18}
        inSlope: {x: 0, y: 0, z: 0}
        outSlope: {x: 0, y: 0, z: 0}
        tangentMode: 0
      m_PreInfinity: 2
      m_PostInfinity: 2
      m_RotationOrder: 4
    path: Root/Ball/Wrist/Hand 1/Tumb_Base/Tumb_Middle/Tumb_End
  - curve:
      serializedVersion: 2
      m_Curve:
      - serializedVersion: 2
        time: 0
        value: {x: -0.09071274, y: -0.05667044, z: -1.2692394e-17}
        inSlope: {x: 0, y: 0, z: 0}
        outSlope: {x: 0, y: 0, z: 0}
        tangentMode: 0
      - serializedVersion: 2
        time: 1.125
        value: {x: -0.09071275, y: -0.05667044, z: -1.2692394e-17}
        inSlope: {x: 0, y: 0, z: 0}
        outSlope: {x: 0, y: 0, z: 0}
        tangentMode: 0
      m_PreInfinity: 2
      m_PostInfinity: 2
      m_RotationOrder: 4
    path: Root/Ball/Wrist/Hand 1/Finger_Base
  - curve:
      serializedVersion: 2
      m_Curve:
      - serializedVersion: 2
        time: 0
        value: {x: -0.0426271, y: -0.0031099909, z: -5.2303523e-18}
        inSlope: {x: 0, y: 0, z: 0}
        outSlope: {x: 0, y: 0, z: 0}
        tangentMode: 0
      - serializedVersion: 2
        time: 1.125
        value: {x: -0.0426271, y: -0.003109991, z: -5.2303528e-18}
        inSlope: {x: 0, y: 0, z: 0}
        outSlope: {x: 0, y: 0, z: 0}
        tangentMode: 0
      m_PreInfinity: 2
      m_PostInfinity: 2
      m_RotationOrder: 4
    path: Root/Ball/Wrist/Hand 1/Finger_Base/Finger_Middle
  - curve:
      serializedVersion: 2
      m_Curve:
      - serializedVersion: 2
        time: 0
        value: {x: -0.033796158, y: -8.881783e-18, z: -4.138768e-18}
        inSlope: {x: 0, y: 0, z: 0}
        outSlope: {x: 0, y: 0, z: 0}
        tangentMode: 0
      - serializedVersion: 2
        time: 1.125
        value: {x: -0.033796158, y: -8.881784e-18, z: -4.1387684e-18}
        inSlope: {x: 0, y: 0, z: 0}
        outSlope: {x: 0, y: 0, z: 0}
        tangentMode: 0
      m_PreInfinity: 2
      m_PostInfinity: 2
      m_RotationOrder: 4
    path: Root/Ball/Wrist/Hand 1/Finger_Base/Finger_Middle/Finger_End
  - curve:
      serializedVersion: 2
      m_Curve:
      - serializedVersion: 2
        time: 0
        value: {x: -0.06358552, y: -0.08583553, z: -1.3078089e-17}
        inSlope: {x: 0, y: 0, z: 0}
        outSlope: {x: 0, y: 0, z: 0}
        tangentMode: 0
      - serializedVersion: 2
        time: 1.125
        value: {x: -0.06358552, y: -0.08583553, z: -1.3078088e-17}
        inSlope: {x: 0, y: 0, z: 0}
        outSlope: {x: 0, y: 0, z: 0}
        tangentMode: 0
      m_PreInfinity: 2
      m_PostInfinity: 2
      m_RotationOrder: 4
    path: Root/Ball/Wrist/Hand 1/Middle_Finger_Base
  - curve:
      serializedVersion: 2
      m_Curve:
      - serializedVersion: 2
        time: 0
        value: {x: -0.037023116, y: 1.554312e-17, z: -4.5319786e-18}
        inSlope: {x: 0, y: 0, z: 0}
        outSlope: {x: 0, y: 0, z: 0}
        tangentMode: 0
      - serializedVersion: 2
        time: 1.125
        value: {x: -0.037023116, y: 1.5543122e-17, z: -4.5319786e-18}
        inSlope: {x: 0, y: 0, z: 0}
        outSlope: {x: 0, y: 0, z: 0}
        tangentMode: 0
      m_PreInfinity: 2
      m_PostInfinity: 2
      m_RotationOrder: 4
    path: Root/Ball/Wrist/Hand 1/Middle_Finger_Base/Middle_Finger_M
  - curve:
      serializedVersion: 2
      m_Curve:
      - serializedVersion: 2
        time: 0
        value: {x: -0.031698085, y: -2.2204458e-18, z: -3.881852e-18}
        inSlope: {x: 0, y: 0, z: 0}
        outSlope: {x: 0, y: 0, z: 0}
        tangentMode: 0
      - serializedVersion: 2
        time: 1.125
        value: {x: -0.031698085, y: -2.220446e-18, z: -3.881852e-18}
        inSlope: {x: 0, y: 0, z: 0}
        outSlope: {x: 0, y: 0, z: 0}
        tangentMode: 0
      m_PreInfinity: 2
      m_PostInfinity: 2
      m_RotationOrder: 4
    path: Root/Ball/Wrist/Hand 1/Middle_Finger_Base/Middle_Finger_M/Middle_Finger_End
  - curve:
      serializedVersion: 2
      m_Curve:
      - serializedVersion: 2
        time: 0
        value: {x: -0.03329139, y: -0.108550854, z: -1.3216583e-17}
        inSlope: {x: 0, y: 0, z: 0}
        outSlope: {x: 0, y: 0, z: 0}
        tangentMode: 0
      - serializedVersion: 2
        time: 1.125
        value: {x: -0.033291392, y: -0.10855086, z: -1.3216582e-17}
        inSlope: {x: 0, y: 0, z: 0}
        outSlope: {x: 0, y: 0, z: 0}
        tangentMode: 0
      m_PreInfinity: 2
      m_PostInfinity: 2
      m_RotationOrder: 4
    path: Root/Ball/Wrist/Hand 1/Small_Finger_Base
  - curve:
      serializedVersion: 2
      m_Curve:
      - serializedVersion: 2
        time: 0
        value: {x: -0.039001487, y: 2.2204458e-18, z: -4.7762095e-18}
        inSlope: {x: 0, y: 0, z: 0}
        outSlope: {x: 0, y: 0, z: 0}
        tangentMode: 0
      - serializedVersion: 2
        time: 1.125
        value: {x: -0.039001487, y: 2.220446e-18, z: -4.7762095e-18}
        inSlope: {x: 0, y: 0, z: 0}
        outSlope: {x: 0, y: 0, z: 0}
        tangentMode: 0
      m_PreInfinity: 2
      m_PostInfinity: 2
      m_RotationOrder: 4
    path: Root/Ball/Wrist/Hand 1/Small_Finger_Base/Small_Finger_Middle
  - curve:
      serializedVersion: 2
      m_Curve:
      - serializedVersion: 2
        time: 0
        value: {x: -0.029450698, y: 9.325873e-17, z: -3.6048254e-18}
        inSlope: {x: 0, y: 0, z: 0}
        outSlope: {x: 0, y: 0, z: 0}
        tangentMode: 0
      - serializedVersion: 2
        time: 1.125
        value: {x: -0.029450698, y: 9.3258725e-17, z: -3.6048254e-18}
        inSlope: {x: 0, y: 0, z: 0}
        outSlope: {x: 0, y: 0, z: 0}
        tangentMode: 0
      m_PreInfinity: 2
      m_PostInfinity: 2
      m_RotationOrder: 4
    path: Root/Ball/Wrist/Hand 1/Small_Finger_Base/Small_Finger_Middle/Small_Finger_End
  - curve:
      serializedVersion: 2
      m_Curve:
      - serializedVersion: 2
        time: 0
        value: {x: -0.0603142, y: -0.034972, z: 0.02898339}
        inSlope: {x: -0.11801243, y: 0.044927794, z: -0.17928688}
        outSlope: {x: -0.1180125, y: 0.044928152, z: -0.17928736}
        tangentMode: 0
      - serializedVersion: 2
        time: 0.041666664
        value: {x: -0.064960934, y: -0.034348, z: 0.023509506}
        inSlope: {x: -0.08371183, y: 0.00000028203857, z: -0.00000038511985}
        outSlope: {x: -0.083711796, y: -0.00000009423106, z: -0.00000012094903}
        tangentMode: 0
      - serializedVersion: 2
        time: 0.083333336
        value: {x: -0.06729018, y: -0.034663692, z: 0.024705812}
        inSlope: {x: -0.033686947, y: -0.0073294886, z: 0.045319837}
        outSlope: {x: -0.033686996, y: -0.0073295543, z: 0.045319576}
        tangentMode: 0
      - serializedVersion: 2
        time: 0.12499999
        value: {x: -0.067768164, y: -0.034958787, z: 0.027286138}
        inSlope: {x: 0.00000005554301, y: -0.005701768, z: 0.04787733}
        outSlope: {x: 0.00000064785695, y: -0.0057013878, z: 0.04787711}
        tangentMode: 0
      - serializedVersion: 2
        time: 0.20833331
        value: {x: -0.067505606, y: -0.035225697, z: 0.029885335}
        inSlope: {x: 0.0044538397, y: -0.0023225541, z: 0.026414916}
        outSlope: {x: 0.004454032, y: -0.0023225578, z: 0.026415331}
        tangentMode: 0
      - serializedVersion: 2
        time: 0.625
        value: {x: -0.058278985, y: -0.037654217, z: 0.03627942}
        inSlope: {x: 0.031630572, y: -0.009986005, z: 0.016013317}
        outSlope: {x: 0.031630497, y: -0.009985841, z: 0.016013067}
        tangentMode: 0
      - serializedVersion: 2
        time: 0.7916667
        value: {x: -0.055136465, y: -0.03855323, z: 0.037663084}
        inSlope: {x: 0.000000043365038, y: 0.004915995, z: -0.007873852}
        outSlope: {x: 0.0000003821584, y: 0.004915632, z: -0.007873884}
        tangentMode: 0
      - serializedVersion: 2
        time: 1.0416666
        value: {x: -0.057179485, y: -0.036585364, z: 0.033760946}
        inSlope: {x: -0.0028432377, y: 0.0033455302, z: -0.007440038}
        outSlope: {x: -0.0028427418, y: 0.0033455954, z: -0.0074391207}
        tangentMode: 0
      - serializedVersion: 2
        time: 1.125
        value: {x: -0.057245724, y: -0.036429666, z: 0.033805292}
        inSlope: {x: 0.00000047930007, y: 0.0009317162, z: -0.00000016984924}
        outSlope: {x: -0.00000054382264, y: 0.0009320502, z: -0.000002608486}
        tangentMode: 0
      m_PreInfinity: 2
      m_PostInfinity: 2
      m_RotationOrder: 4
    path: Root/Ball/Wrist/Hand 1/Weapon
  m_ScaleCurves:
  - curve:
      serializedVersion: 2
      m_Curve:
      - serializedVersion: 2
        time: 0
        value: {x: 1, y: 1, z: 1}
        inSlope: {x: 0, y: 0, z: 0}
        outSlope: {x: 0, y: 0, z: 0}
        tangentMode: 0
      - serializedVersion: 2
        time: 1.125
        value: {x: 1, y: 1, z: 1}
        inSlope: {x: 0, y: 0, z: 0}
        outSlope: {x: 0, y: 0, z: 0}
        tangentMode: 0
      m_PreInfinity: 2
      m_PostInfinity: 2
      m_RotationOrder: 4
    path: Root
  - curve:
      serializedVersion: 2
      m_Curve:
      - serializedVersion: 2
        time: 0
        value: {x: 1, y: 1, z: 1}
        inSlope: {x: 0, y: 0, z: 0}
        outSlope: {x: 0, y: 0, z: 0}
        tangentMode: 0
      - serializedVersion: 2
        time: 1.125
        value: {x: 1, y: 1, z: 1}
        inSlope: {x: 0, y: 0, z: 0}
        outSlope: {x: 0, y: 0, z: 0}
        tangentMode: 0
      m_PreInfinity: 2
      m_PostInfinity: 2
      m_RotationOrder: 4
    path: Root/Ball
  - curve:
      serializedVersion: 2
      m_Curve:
      - serializedVersion: 2
        time: 0
        value: {x: 1, y: 1, z: 1}
        inSlope: {x: 0, y: 0, z: 0}
        outSlope: {x: 0, y: 0, z: 0}
        tangentMode: 0
      - serializedVersion: 2
        time: 1.125
        value: {x: 1, y: 1, z: 1}
        inSlope: {x: 0, y: 0, z: 0}
        outSlope: {x: 0, y: 0, z: 0}
        tangentMode: 0
      m_PreInfinity: 2
      m_PostInfinity: 2
      m_RotationOrder: 4
    path: Root/Ball/Wrist
  - curve:
      serializedVersion: 2
      m_Curve:
      - serializedVersion: 2
        time: 0
        value: {x: 1, y: 1, z: 1}
        inSlope: {x: 0, y: 0, z: 0}
        outSlope: {x: 0, y: 0, z: 0}
        tangentMode: 0
      - serializedVersion: 2
        time: 1.125
        value: {x: 1, y: 1, z: 1}
        inSlope: {x: 0, y: 0, z: 0}
        outSlope: {x: 0, y: 0, z: 0}
        tangentMode: 0
      m_PreInfinity: 2
      m_PostInfinity: 2
      m_RotationOrder: 4
    path: Root/Ball/Wrist/Hand 1
  - curve:
      serializedVersion: 2
      m_Curve:
      - serializedVersion: 2
        time: 0
        value: {x: 1, y: 1, z: 1}
        inSlope: {x: 0, y: 0, z: 0}
        outSlope: {x: 0, y: 0, z: 0}
        tangentMode: 0
      - serializedVersion: 2
        time: 1.125
        value: {x: 1, y: 1, z: 1}
        inSlope: {x: 0, y: 0, z: 0}
        outSlope: {x: 0, y: 0, z: 0}
        tangentMode: 0
      m_PreInfinity: 2
      m_PostInfinity: 2
      m_RotationOrder: 4
    path: Root/Ball/Wrist/Hand 1/Tumb_Base
  - curve:
      serializedVersion: 2
      m_Curve:
      - serializedVersion: 2
        time: 0
        value: {x: 1, y: 1, z: 1}
        inSlope: {x: 0, y: 0, z: 0}
        outSlope: {x: 0, y: 0, z: 0}
        tangentMode: 0
      - serializedVersion: 2
        time: 1.125
        value: {x: 1, y: 1, z: 1}
        inSlope: {x: 0, y: 0, z: 0}
        outSlope: {x: 0, y: 0, z: 0}
        tangentMode: 0
      m_PreInfinity: 2
      m_PostInfinity: 2
      m_RotationOrder: 4
    path: Root/Ball/Wrist/Hand 1/Tumb_Base/Tumb_Middle
  - curve:
      serializedVersion: 2
      m_Curve:
      - serializedVersion: 2
        time: 0
        value: {x: 1, y: 1, z: 1}
        inSlope: {x: 0, y: 0, z: 0}
        outSlope: {x: 0, y: 0, z: 0}
        tangentMode: 0
      - serializedVersion: 2
        time: 1.125
        value: {x: 1, y: 1, z: 1}
        inSlope: {x: 0, y: 0, z: 0}
        outSlope: {x: 0, y: 0, z: 0}
        tangentMode: 0
      m_PreInfinity: 2
      m_PostInfinity: 2
      m_RotationOrder: 4
    path: Root/Ball/Wrist/Hand 1/Tumb_Base/Tumb_Middle/Tumb_End
  - curve:
      serializedVersion: 2
      m_Curve:
      - serializedVersion: 2
        time: 0
        value: {x: 1, y: 1, z: 1}
        inSlope: {x: 0, y: 0, z: 0}
        outSlope: {x: 0, y: 0, z: 0}
        tangentMode: 0
      - serializedVersion: 2
        time: 1.125
        value: {x: 1, y: 1, z: 1}
        inSlope: {x: 0, y: 0, z: 0}
        outSlope: {x: 0, y: 0, z: 0}
        tangentMode: 0
      m_PreInfinity: 2
      m_PostInfinity: 2
      m_RotationOrder: 4
    path: Root/Ball/Wrist/Hand 1/Finger_Base
  - curve:
      serializedVersion: 2
      m_Curve:
      - serializedVersion: 2
        time: 0
        value: {x: 1, y: 1, z: 1}
        inSlope: {x: 0, y: 0, z: 0}
        outSlope: {x: 0, y: 0, z: 0}
        tangentMode: 0
      - serializedVersion: 2
        time: 1.125
        value: {x: 1, y: 1, z: 1}
        inSlope: {x: 0, y: 0, z: 0}
        outSlope: {x: 0, y: 0, z: 0}
        tangentMode: 0
      m_PreInfinity: 2
      m_PostInfinity: 2
      m_RotationOrder: 4
    path: Root/Ball/Wrist/Hand 1/Finger_Base/Finger_Middle
  - curve:
      serializedVersion: 2
      m_Curve:
      - serializedVersion: 2
        time: 0
        value: {x: 1, y: 1, z: 1}
        inSlope: {x: 0, y: 0, z: 0}
        outSlope: {x: 0, y: 0, z: 0}
        tangentMode: 0
      - serializedVersion: 2
        time: 1.125
        value: {x: 1, y: 1, z: 1}
        inSlope: {x: 0, y: 0, z: 0}
        outSlope: {x: 0, y: 0, z: 0}
        tangentMode: 0
      m_PreInfinity: 2
      m_PostInfinity: 2
      m_RotationOrder: 4
    path: Root/Ball/Wrist/Hand 1/Finger_Base/Finger_Middle/Finger_End
  - curve:
      serializedVersion: 2
      m_Curve:
      - serializedVersion: 2
        time: 0
        value: {x: 1, y: 1, z: 1}
        inSlope: {x: 0, y: 0, z: 0}
        outSlope: {x: 0, y: 0, z: 0}
        tangentMode: 0
      - serializedVersion: 2
        time: 1.125
        value: {x: 1, y: 1, z: 1}
        inSlope: {x: 0, y: 0, z: 0}
        outSlope: {x: 0, y: 0, z: 0}
        tangentMode: 0
      m_PreInfinity: 2
      m_PostInfinity: 2
      m_RotationOrder: 4
    path: Root/Ball/Wrist/Hand 1/Middle_Finger_Base
  - curve:
      serializedVersion: 2
      m_Curve:
      - serializedVersion: 2
        time: 0
        value: {x: 1, y: 1, z: 1}
        inSlope: {x: 0, y: 0, z: 0}
        outSlope: {x: 0, y: 0, z: 0}
        tangentMode: 0
      - serializedVersion: 2
        time: 1.125
        value: {x: 1, y: 1, z: 1}
        inSlope: {x: 0, y: 0, z: 0}
        outSlope: {x: 0, y: 0, z: 0}
        tangentMode: 0
      m_PreInfinity: 2
      m_PostInfinity: 2
      m_RotationOrder: 4
    path: Root/Ball/Wrist/Hand 1/Middle_Finger_Base/Middle_Finger_M
  - curve:
      serializedVersion: 2
      m_Curve:
      - serializedVersion: 2
        time: 0
        value: {x: 1, y: 1, z: 1}
        inSlope: {x: 0, y: 0, z: 0}
        outSlope: {x: 0, y: 0, z: 0}
        tangentMode: 0
      - serializedVersion: 2
        time: 1.125
        value: {x: 1, y: 1, z: 1}
        inSlope: {x: 0, y: 0, z: 0}
        outSlope: {x: 0, y: 0, z: 0}
        tangentMode: 0
      m_PreInfinity: 2
      m_PostInfinity: 2
      m_RotationOrder: 4
    path: Root/Ball/Wrist/Hand 1/Middle_Finger_Base/Middle_Finger_M/Middle_Finger_End
  - curve:
      serializedVersion: 2
      m_Curve:
      - serializedVersion: 2
        time: 0
        value: {x: 1, y: 1, z: 1}
        inSlope: {x: 0, y: 0, z: 0}
        outSlope: {x: 0, y: 0, z: 0}
        tangentMode: 0
      - serializedVersion: 2
        time: 1.125
        value: {x: 1, y: 1, z: 1}
        inSlope: {x: 0, y: 0, z: 0}
        outSlope: {x: 0, y: 0, z: 0}
        tangentMode: 0
      m_PreInfinity: 2
      m_PostInfinity: 2
      m_RotationOrder: 4
    path: Root/Ball/Wrist/Hand 1/Small_Finger_Base
  - curve:
      serializedVersion: 2
      m_Curve:
      - serializedVersion: 2
        time: 0
        value: {x: 1, y: 1, z: 1}
        inSlope: {x: 0, y: 0, z: 0}
        outSlope: {x: 0, y: 0, z: 0}
        tangentMode: 0
      - serializedVersion: 2
        time: 1.125
        value: {x: 1, y: 1, z: 1}
        inSlope: {x: 0, y: 0, z: 0}
        outSlope: {x: 0, y: 0, z: 0}
        tangentMode: 0
      m_PreInfinity: 2
      m_PostInfinity: 2
      m_RotationOrder: 4
    path: Root/Ball/Wrist/Hand 1/Small_Finger_Base/Small_Finger_Middle
  - curve:
      serializedVersion: 2
      m_Curve:
      - serializedVersion: 2
        time: 0
        value: {x: 1, y: 1, z: 1}
        inSlope: {x: 0, y: 0, z: 0}
        outSlope: {x: 0, y: 0, z: 0}
        tangentMode: 0
      - serializedVersion: 2
        time: 1.125
        value: {x: 1, y: 1, z: 1}
        inSlope: {x: 0, y: 0, z: 0}
        outSlope: {x: 0, y: 0, z: 0}
        tangentMode: 0
      m_PreInfinity: 2
      m_PostInfinity: 2
      m_RotationOrder: 4
    path: Root/Ball/Wrist/Hand 1/Small_Finger_Base/Small_Finger_Middle/Small_Finger_End
  - curve:
      serializedVersion: 2
      m_Curve:
      - serializedVersion: 2
        time: 0
        value: {x: 1, y: 1, z: 1}
        inSlope: {x: 0, y: 0, z: 0}
        outSlope: {x: 0, y: 0, z: 0}
        tangentMode: 0
      - serializedVersion: 2
        time: 1.125
        value: {x: 1, y: 1, z: 1}
        inSlope: {x: 0, y: 0, z: 0}
        outSlope: {x: 0, y: 0, z: 0}
        tangentMode: 0
      m_PreInfinity: 2
      m_PostInfinity: 2
      m_RotationOrder: 4
    path: Root/Ball/Wrist/Hand 1/Weapon
  m_FloatCurves: []
  m_PPtrCurves: []
  m_SampleRate: 30
  m_WrapMode: 0
  m_Bounds:
    m_Center: {x: 0, y: 0, z: 0}
    m_Extent: {x: 0, y: 0, z: 0}
  m_ClipBindingConstant:
    genericBindings:
    - serializedVersion: 2
      path: 2231110683
      attribute: 1
      script: {fileID: 0}
      typeID: 4
      customType: 0
      isPPtrCurve: 0
    - serializedVersion: 2
      path: 2250244359
      attribute: 1
      script: {fileID: 0}
      typeID: 4
      customType: 0
      isPPtrCurve: 0
    - serializedVersion: 2
      path: 3066451557
      attribute: 2
      script: {fileID: 0}
      typeID: 4
      customType: 0
      isPPtrCurve: 0
    - serializedVersion: 2
      path: 3908975678
      attribute: 2
      script: {fileID: 0}
      typeID: 4
      customType: 0
      isPPtrCurve: 0
    - serializedVersion: 2
      path: 2231110683
      attribute: 2
      script: {fileID: 0}
      typeID: 4
      customType: 0
      isPPtrCurve: 0
    - serializedVersion: 2
      path: 803843175
      attribute: 2
      script: {fileID: 0}
      typeID: 4
      customType: 0
      isPPtrCurve: 0
    - serializedVersion: 2
      path: 989086316
      attribute: 2
      script: {fileID: 0}
      typeID: 4
      customType: 0
      isPPtrCurve: 0
    - serializedVersion: 2
      path: 1850503892
      attribute: 2
      script: {fileID: 0}
      typeID: 4
      customType: 0
      isPPtrCurve: 0
    - serializedVersion: 2
      path: 2248433623
      attribute: 2
      script: {fileID: 0}
      typeID: 4
      customType: 0
      isPPtrCurve: 0
    - serializedVersion: 2
      path: 1703548319
      attribute: 2
      script: {fileID: 0}
      typeID: 4
      customType: 0
      isPPtrCurve: 0
    - serializedVersion: 2
      path: 3277555179
      attribute: 2
      script: {fileID: 0}
      typeID: 4
      customType: 0
      isPPtrCurve: 0
    - serializedVersion: 2
      path: 4255437976
      attribute: 2
      script: {fileID: 0}
      typeID: 4
      customType: 0
      isPPtrCurve: 0
    - serializedVersion: 2
      path: 261776182
      attribute: 2
      script: {fileID: 0}
      typeID: 4
      customType: 0
      isPPtrCurve: 0
    - serializedVersion: 2
      path: 2250244359
      attribute: 2
      script: {fileID: 0}
      typeID: 4
      customType: 0
      isPPtrCurve: 0
    - serializedVersion: 2
      path: 3066451557
      attribute: 1
      script: {fileID: 0}
      typeID: 4
      customType: 0
      isPPtrCurve: 0
    - serializedVersion: 2
      path: 3908975678
      attribute: 1
      script: {fileID: 0}
      typeID: 4
      customType: 0
      isPPtrCurve: 0
    - serializedVersion: 2
      path: 2208879077
      attribute: 1
      script: {fileID: 0}
      typeID: 4
      customType: 0
      isPPtrCurve: 0
    - serializedVersion: 2
      path: 803843175
      attribute: 1
      script: {fileID: 0}
      typeID: 4
      customType: 0
      isPPtrCurve: 0
    - serializedVersion: 2
      path: 989086316
      attribute: 1
      script: {fileID: 0}
      typeID: 4
      customType: 0
      isPPtrCurve: 0
    - serializedVersion: 2
      path: 860118355
      attribute: 1
      script: {fileID: 0}
      typeID: 4
      customType: 0
      isPPtrCurve: 0
    - serializedVersion: 2
      path: 1850503892
      attribute: 1
      script: {fileID: 0}
      typeID: 4
      customType: 0
      isPPtrCurve: 0
    - serializedVersion: 2
      path: 2248433623
      attribute: 1
      script: {fileID: 0}
      typeID: 4
      customType: 0
      isPPtrCurve: 0
    - serializedVersion: 2
      path: 3212912986
      attribute: 1
      script: {fileID: 0}
      typeID: 4
      customType: 0
      isPPtrCurve: 0
    - serializedVersion: 2
      path: 1703548319
      attribute: 1
      script: {fileID: 0}
      typeID: 4
      customType: 0
      isPPtrCurve: 0
    - serializedVersion: 2
      path: 3277555179
      attribute: 1
      script: {fileID: 0}
      typeID: 4
      customType: 0
      isPPtrCurve: 0
    - serializedVersion: 2
      path: 1868202481
      attribute: 1
      script: {fileID: 0}
      typeID: 4
      customType: 0
      isPPtrCurve: 0
    - serializedVersion: 2
      path: 4255437976
      attribute: 1
      script: {fileID: 0}
      typeID: 4
      customType: 0
      isPPtrCurve: 0
    - serializedVersion: 2
      path: 261776182
      attribute: 1
      script: {fileID: 0}
      typeID: 4
      customType: 0
      isPPtrCurve: 0
    - serializedVersion: 2
      path: 4017759135
      attribute: 1
      script: {fileID: 0}
      typeID: 4
      customType: 0
      isPPtrCurve: 0
    - serializedVersion: 2
      path: 2208879077
      attribute: 2
      script: {fileID: 0}
      typeID: 4
      customType: 0
      isPPtrCurve: 0
    - serializedVersion: 2
      path: 860118355
      attribute: 2
      script: {fileID: 0}
      typeID: 4
      customType: 0
      isPPtrCurve: 0
    - serializedVersion: 2
      path: 3212912986
      attribute: 2
      script: {fileID: 0}
      typeID: 4
      customType: 0
      isPPtrCurve: 0
    - serializedVersion: 2
      path: 1868202481
      attribute: 2
      script: {fileID: 0}
      typeID: 4
      customType: 0
      isPPtrCurve: 0
    - serializedVersion: 2
      path: 4017759135
      attribute: 2
      script: {fileID: 0}
      typeID: 4
      customType: 0
      isPPtrCurve: 0
    - serializedVersion: 2
      path: 3066451557
      attribute: 3
      script: {fileID: 0}
      typeID: 4
      customType: 0
      isPPtrCurve: 0
    - serializedVersion: 2
      path: 3908975678
      attribute: 3
      script: {fileID: 0}
      typeID: 4
      customType: 0
      isPPtrCurve: 0
    - serializedVersion: 2
      path: 2208879077
      attribute: 3
      script: {fileID: 0}
      typeID: 4
      customType: 0
      isPPtrCurve: 0
    - serializedVersion: 2
      path: 2231110683
      attribute: 3
      script: {fileID: 0}
      typeID: 4
      customType: 0
      isPPtrCurve: 0
    - serializedVersion: 2
      path: 803843175
      attribute: 3
      script: {fileID: 0}
      typeID: 4
      customType: 0
      isPPtrCurve: 0
    - serializedVersion: 2
      path: 989086316
      attribute: 3
      script: {fileID: 0}
      typeID: 4
      customType: 0
      isPPtrCurve: 0
    - serializedVersion: 2
      path: 860118355
      attribute: 3
      script: {fileID: 0}
      typeID: 4
      customType: 0
      isPPtrCurve: 0
    - serializedVersion: 2
      path: 1850503892
      attribute: 3
      script: {fileID: 0}
      typeID: 4
      customType: 0
      isPPtrCurve: 0
    - serializedVersion: 2
      path: 2248433623
      attribute: 3
      script: {fileID: 0}
      typeID: 4
      customType: 0
      isPPtrCurve: 0
    - serializedVersion: 2
      path: 3212912986
      attribute: 3
      script: {fileID: 0}
      typeID: 4
      customType: 0
      isPPtrCurve: 0
    - serializedVersion: 2
      path: 1703548319
      attribute: 3
      script: {fileID: 0}
      typeID: 4
      customType: 0
      isPPtrCurve: 0
    - serializedVersion: 2
      path: 3277555179
      attribute: 3
      script: {fileID: 0}
      typeID: 4
      customType: 0
      isPPtrCurve: 0
    - serializedVersion: 2
      path: 1868202481
      attribute: 3
      script: {fileID: 0}
      typeID: 4
      customType: 0
      isPPtrCurve: 0
    - serializedVersion: 2
      path: 4255437976
      attribute: 3
      script: {fileID: 0}
      typeID: 4
      customType: 0
      isPPtrCurve: 0
    - serializedVersion: 2
      path: 261776182
      attribute: 3
      script: {fileID: 0}
      typeID: 4
      customType: 0
      isPPtrCurve: 0
    - serializedVersion: 2
      path: 4017759135
      attribute: 3
      script: {fileID: 0}
      typeID: 4
      customType: 0
      isPPtrCurve: 0
    - serializedVersion: 2
      path: 2250244359
      attribute: 3
      script: {fileID: 0}
      typeID: 4
      customType: 0
      isPPtrCurve: 0
    pptrCurveMapping: []
  m_AnimationClipSettings:
    serializedVersion: 2
    m_AdditiveReferencePoseClip: {fileID: 0}
    m_AdditiveReferencePoseTime: 0
    m_StartTime: 0
    m_StopTime: 1.125
    m_OrientationOffsetY: 0
    m_Level: 0
    m_CycleOffset: 0
    m_HasAdditiveReferencePose: 0
    m_LoopTime: 0
    m_LoopBlend: 0
    m_LoopBlendOrientation: 0
    m_LoopBlendPositionY: 0
    m_LoopBlendPositionXZ: 0
    m_KeepOriginalOrientation: 0
    m_KeepOriginalPositionY: 1
    m_KeepOriginalPositionXZ: 0
    m_HeightFromFeet: 0
    m_Mirror: 0
  m_EditorCurves: []
  m_EulerEditorCurves: []
  m_HasGenericRootTransform: 0
  m_HasMotionFloatCurves: 0
  m_GenerateMotionCurves: 0
  m_Events: []
